S.No,Category Name,Url,Store Name,Path,Count Products
1,Mobiles,"http://www.flipkart.com/lc/pr/pv1/spotList1/spot1/productList?sid=tyy,4io&filterNone=true&start=1&ajax=true&_=1460746573007",flipkart,"tyy,4io",250
2,Tablets,"http://www.flipkart.com/lc/pr/pv1/spotList1/spot1/productList?sid=tyy,hry&filterNone=true&start=1&ajax=true&_=1460746573007",flipkart,"tyy,hry",50
3,Power Banks,"http://www.flipkart.com/lc/pr/pv1/spotList1/spot1/productList?sid=tyy,4mr,fu6&filterNone=true&start=1&ajax=true&_=1460746573007",flipkart,"tyy,4mr,fu6",100
4,Memory Cards,"http://www.flipkart.com/lc/pr/pv1/spotList1/spot1/productList?sid=tyy,4mr,zzf,7y7&filterNone=true&start=1&ajax=true&_=1460746573007",flipkart,"tyy,4mr,zzf,7y7",50
5,Smart Watches,"http://www.flipkart.com/lc/pr/pv1/spotList1/spot1/productList?sid=ajy,buh&filterNone=true&start=1&ajax=true&_=1460746573007",flipkart,"ajy,buh",50
6,Smart Bands,"http://www.flipkart.com/lc/pr/pv1/spotList1/spot1/productList?sid=ajy,q7p&filterNone=true&start=1&ajax=true&_=1460746573007",flipkart,"ajy,q7p",50
7,Headphones,"http://www.flipkart.com/lc/pr/pv1/spotList1/spot1/productList?sid=tyy,4mr,fp0,g93&filterNone=true&start=1&ajax=true&_=1460746573007",flipkart,"tyy,4mr,fp0,g93",50
8,Virtual Headsets,"http://www.flipkart.com/lc/pr/pv1/spotList1/spot1/productList?sid=ajy,tcy&filterNone=true&start=1&ajax=true&_=1460746573007",flipkart,"ajy,tcy",50
9,Bluetooth Headsets,"http://www.flipkart.com/lc/pr/pv1/spotList1/spot1/productList?sid=tyy,4mr,qtx&filterNone=true&start=1&ajax=true&_=1460746573007",flipkart,"tyy,4mr,qtx",50
10,Laptops,"http://www.flipkart.com/lc/pr/pv1/spotList1/spot1/productList?sid=6bo,b5g&filterNone=true&start=1&ajax=true&_=1460746573007",flipkart,"6bo,b5g",100
11,Pen Drives,"http://www.flipkart.com/lc/pr/pv1/spotList1/spot1/productList?sid=6bo,jdy,uar&filterNone=true&start=1&ajax=true&_=1460746573007",flipkart,"6bo,jdy,uar",50
12,External Hard Disk,"http://www.flipkart.com/lc/pr/pv1/spotList1/spot1/productList?sid=6bo,jdy,nl6&filterNone=true&start=1&ajax=true&_=1460746573007",flipkart,"6bo,jdy,nl6",50
13,External DVD Writers,"http://www.flipkart.com/lc/pr/pv1/spotList1/spot1/productList?sid=6bo,ai3,w44&filterNone=true&start=1&ajax=true&_=1460746573007",flipkart,"6bo,ai3,w44",50
14,Card Readers,"http://www.flipkart.com/lc/pr/pv1/spotList1/spot1/productList?sid=tyy,4mr,zzf,gr1&filterNone=true&start=1&ajax=true&_=1460746573007",flipkart,"tyy,4mr,zzf,gr1",50
15,All-In-One Desktops,"http://www.flipkart.com/lc/pr/pv1/spotList1/spot1/productList?sid=6bo,igk&filterNone=true&start=1&ajax=true&_=1460746573007",flipkart,"6bo,igk",50
16,Tower Desktops,"http://www.flipkart.com/lc/pr/pv1/spotList1/spot1/productList?sid=6bo,tia,97r&filterNone=true&start=1&ajax=true&_=1460746573007",flipkart,"6bo,tia,97r",50
17,Monitors,"http://www.flipkart.com/lc/pr/pv1/spotList1/spot1/productList?sid=6bo,9no&filterNone=true&start=1&ajax=true&_=1460746573007",flipkart,"6bo,9no",50
18,Mini PCs,"http://www.flipkart.com/lc/pr/pv1/spotList1/spot1/productList?sid=6bo,g0i,w4m&filterNone=true&start=1&ajax=true&_=1460746573007",flipkart,"6bo,g0i,w4m",50
19,Keyboards,"http://www.flipkart.com/lc/pr/pv1/spotList1/spot1/productList?sid=6bo,ai3,3oe&filterNone=true&start=1&ajax=true&_=1460746573007",flipkart,"6bo,ai3,3oe",50
20,Mouse,"http://www.flipkart.com/lc/pr/pv1/spotList1/spot1/productList?sid=6bo,ai3,2ay&filterNone=true&start=1&ajax=true&_=1460746573007",flipkart,"6bo,ai3,2ay",50
21,Computer Headsets,"http://www.flipkart.com/lc/pr/pv1/spotList1/spot1/productList?sid=6bo,ai3,yhg&filterNone=true&start=1&ajax=true&_=1460746573007",flipkart,"6bo,ai3,yhg",50
22,Speakers,"http://www.flipkart.com/lc/pr/pv1/spotList1/spot1/productList?sid=ckf,rlj,8sb&filterNone=true&start=1&ajax=true&_=1460746573007",flipkart,"ckf,rlj,8sb",50
23,Web Cams,"http://www.flipkart.com/lc/pr/pv1/spotList1/spot1/productList?sid=6bo,ai3,r3e&filterNone=true&start=1&ajax=true&_=1460746573007",flipkart,"6bo,ai3,r3e",50
24,Cooling Pads,"http://www.flipkart.com/lc/pr/pv1/spotList1/spot1/productList?sid=6bo,ai3,59n&filterNone=true&start=1&ajax=true&_=1460746573007",flipkart,"6bo,ai3,59n",50
25,Wifi Routers,"http://www.flipkart.com/lc/pr/pv1/spotList1/spot1/productList?sid=6bo,70k,2a2&filterNone=true&start=1&ajax=true&_=1460746573007",flipkart,"6bo,70k,2a2",100
26,Wireless USB Adapters,"http://www.flipkart.com/lc/pr/pv1/spotList1/spot1/productList?sid=6bo,70k,85j&filterNone=true&start=1&ajax=true&_=1460746573007",flipkart,"6bo,70k,85j",50
27,Access Points,"http://www.flipkart.com/lc/pr/pv1/spotList1/spot1/productList?sid=6bo,70k,i5e&filterNone=true&start=1&ajax=true&_=1460746573007",flipkart,"6bo,70k,i5e",50
28,Switches,"http://www.flipkart.com/lc/pr/pv1/spotList1/spot1/productList?sid=6bo,70k,es5&filterNone=true&start=1&ajax=true&_=1460746573007",flipkart,"6bo,70k,es5",50
29,Network Interface Cards,"http://www.flipkart.com/lc/pr/pv1/spotList1/spot1/productList?sid=6bo,70k,p4a&filterNone=true&start=1&ajax=true&_=1460746573007",flipkart,"6bo,70k,p4a",50
30,Data Cards,"http://www.flipkart.com/lc/pr/pv1/spotList1/spot1/productList?sid=6bo,70k,o47&filterNone=true&start=1&ajax=true&_=1460746573007",flipkart,"6bo,70k,o47",50
31,RAM,"http://www.flipkart.com/lc/pr/pv1/spotList1/spot1/productList?sid=6bo,g0i,s5u&filterNone=true&start=1&ajax=true&_=1460746573007",flipkart,"6bo,g0i,s5u",50
32,Internal Hard Disk,"http://www.flipkart.com/lc/pr/pv1/spotList1/spot1/productList?sid=6bo,g0i,no8&filterNone=true&start=1&ajax=true&_=1460746573007",flipkart,"6bo,g0i,no8",50
33,Graphic Cards,"http://www.flipkart.com/lc/pr/pv1/spotList1/spot1/productList?sid=6bo,g0i,6sn&filterNone=true&start=1&ajax=true&_=1460746573007",flipkart,"6bo,g0i,6sn",50
34,Sound Cards,"http://www.flipkart.com/lc/pr/pv1/spotList1/spot1/productList?sid=6bo,g0i,01m&filterNone=true&start=1&ajax=true&_=1460746573007",flipkart,"6bo,g0i,01m",50
35,Spike Busters,"http://www.flipkart.com/lc/pr/pv1/spotList1/spot1/productList?sid=6bo,g0i,mt9&filterNone=true&start=1&ajax=true&_=1460746573007",flipkart,"6bo,g0i,mt9",50
36,Processors,"http://www.flipkart.com/lc/pr/pv1/spotList1/spot1/productList?sid=6bo,g0i,17w&filterNone=true&start=1&ajax=true&_=1460746573007",flipkart,"6bo,g0i,17w",50
37,Motherboards,"http://www.flipkart.com/lc/pr/pv1/spotList1/spot1/productList?sid=6bo,g0i,y7i&filterNone=true&start=1&ajax=true&_=1460746573007",flipkart,"6bo,g0i,y7i",50
38,InkJet Printers,"http://www.flipkart.com/lc/pr/pv1/spotList1/spot1/productList?sid=6bo,ffn,t64&filterNone=true&start=1&ajax=true&_=1460746573007",flipkart,"6bo,ffn,t64",50
39,LaserJet Printers,"http://www.flipkart.com/lc/pr/pv1/spotList1/spot1/productList?sid=6bo,ffn,t64&filterNone=true&start=1&ajax=true&_=1460746573007",flipkart,"6bo,ffn,t64",50
40,Scanners,"http://www.flipkart.com/lc/pr/pv1/spotList1/spot1/productList?sid=6bo,tia,b3v&filterNone=true&start=1&ajax=true&_=1460746573007",flipkart,"6bo,tia,b3v",50
41,Laser Toners,"http://www.flipkart.com/lc/pr/pv1/spotList1/spot1/productList?sid=6bo,ffn,iv0&filterNone=true&start=1&ajax=true&_=1460746573007",flipkart,"6bo,ffn,iv0",50
42,Ink Cartridges,"http://www.flipkart.com/lc/pr/pv1/spotList1/spot1/productList?sid=6bo,ffn,adt&filterNone=true&start=1&ajax=true&_=1460746573007",flipkart,"6bo,ffn,adt",50
43,Televisions,"http://www.flipkart.com/lc/pr/pv1/spotList1/spot1/productList?sid=ckf,czl&filterNone=true&start=1&ajax=true&_=1460746573007",flipkart,"ckf,czl",100
44,Video And DVD Players,"http://www.flipkart.com/lc/pr/pv1/spotList1/spot1/productList?sid=6bo,xdz&filterNone=true&start=1&ajax=true&_=1460746573007",flipkart,"6bo,xdz",50
45,Home Theaters,"http://www.flipkart.com/lc/pr/pv1/spotList1/spot1/productList?sid=ckf,see,mi3&filterNone=true&start=1&ajax=true&_=1460746573007",flipkart,"ckf,see,mi3",50
46,Projectors,"http://www.flipkart.com/lc/pr/pv1/spotList1/spot1/productList?sid=6bo,tia,1hx&filterNone=true&start=1&ajax=true&_=1460746573007",flipkart,"6bo,tia,1hx",50
47,Digital Cameras,"http://www.flipkart.com/lc/pr/pv1/spotList1/spot1/productList?sid=jek,p31,nxa&filterNone=true&start=1&ajax=true&_=1460746573007",flipkart,"jek,p31,nxa",50
48,DSLRs Cameras,"http://www.flipkart.com/lc/pr/pv1/spotList1/spot1/productList?sid=jek,p31,trv&filterNone=true&start=1&ajax=true&_=1460746573007",flipkart,"jek,p31,trv",50
49,Camcorders,"http://www.flipkart.com/lc/pr/pv1/spotList1/spot1/productList?sid=jek,p31,enu&filterNone=true&start=1&ajax=true&_=1460746573007",flipkart,"jek,p31,enu",50
50,Sports And Action Cameras,"http://www.flipkart.com/lc/pr/pv1/spotList1/spot1/productList?sid=jek,p31,s3q&filterNone=true&start=1&ajax=true&_=1460746573007",flipkart,"jek,p31,s3q",50
51,Tripods,"http://www.flipkart.com/lc/pr/pv1/spotList1/spot1/productList?sid=jek,6l2,ce6&filterNone=true&start=1&ajax=true&_=1460746573007",flipkart,"jek,6l2,ce6",50
52,SD Memory Cards,"http://www.flipkart.com/lc/pr/pv1/spotList1/spot1/productList?sid=jek,6l2,7y6&filterNone=true&start=1&ajax=true&_=1460746573007",flipkart,"jek,6l2,7y6",50
53,Lenses,"http://www.flipkart.com/lc/pr/pv1/spotList1/spot1/productList?sid=jek,6l2,e9y&filterNone=true&start=1&ajax=true&_=1460746573007",flipkart,"jek,6l2,e9y",50
54,Refrigerators,"http://www.flipkart.com/lc/pr/pv1/spotList1/spot1/productList?sid=j9e,abm,hzg&filterNone=true&start=1&ajax=true&_=1460746573007",flipkart,"j9e,abm,hzg",50
55,Washing Machines,"http://www.flipkart.com/lc/pr/pv1/spotList1/spot1/productList?sid=j9e,abm,8qx&filterNone=true&start=1&ajax=true&_=1460746573007",flipkart,"j9e,abm,8qx",50
56,Air Conditioners,"http://www.flipkart.com/lc/pr/pv1/spotList1/spot1/productList?sid=j9e,abm,c54&filterNone=true&start=1&ajax=true&_=1460746573007",flipkart,"j9e,abm,c54",50
57,Water Purifiers,"http://www.flipkart.com/lc/pr/pv1/spotList1/spot1/productList?sid=j9e,abm,i45&filterNone=true&start=1&ajax=true&_=1460746573007",flipkart,"j9e,abm,i45",50
58,Air Coolers,"http://www.flipkart.com/lc/pr/pv1/spotList1/spot1/productList?sid=j9e,abm,52j&filterNone=true&start=1&ajax=true&_=1460746573007",flipkart,"j9e,abm,52j",50
59,Sunglasses_Men,http://www.flipkart.com/lc/pr/pv1/spotList1/spot1/productList?sid= 26x&filterNone=true&start=1&ajax=true&_=1460746573007,flipkart,26x,50
60,Watches_Men,http://www.flipkart.com/lc/pr/pv1/spotList1/spot1/productList?sid= r18&filterNone=true&start=1&ajax=true&_=1460746573007,flipkart,r18,50
61,Wallets_Men,"http://www.flipkart.com/lc/pr/pv1/spotList1/spot1/productList?sid= reh,cca,h76&filterNone=true&start=1&ajax=true&_=1460746573007",flipkart,"reh,cca,h76",50
62,Backpacks,"http://www.flipkart.com/lc/pr/pv1/spotList1/spot1/productList?sid= reh,ihu,4ma&filterNone=true&start=1&ajax=true&_=1460746573007",flipkart,"reh,ihu,4ma",50
63,Sunglasses_Women,http://www.flipkart.com/lc/pr/pv1/spotList1/spot1/productList?sid= 26x&filterNone=true&start=1&ajax=true&_=1460746573007,flipkart,26x,50
64,Watches_Women,http://www.flipkart.com/lc/pr/pv1/spotList1/spot1/productList?sid= r18&filterNone=true&start=1&ajax=true&_=1460746573007,flipkart,r18,50
65,Mixer Juicer Grinder,"http://www.flipkart.com/lc/pr/pv1/spotList1/spot1/productList?sid=j9e,m38,7ek&filterNone=true&start=1&ajax=true&_=1460746573007",flipkart,"j9e,m38,7ek",50
66,Induction Cooktops,"http://www.flipkart.com/lc/pr/pv1/spotList1/spot1/productList?sid=j9e,m38,575&filterNone=true&start=1&ajax=true&_=1460746573007",flipkart,"j9e,m38,575",50
67,Electric Cookers,"http://www.flipkart.com/lc/pr/pv1/spotList1/spot1/productList?sid=j9e,m38,9m9&filterNone=true&start=1&ajax=true&_=1460746573007",flipkart,"j9e,m38,9m9",50
68,Sandwich Maker,"http://www.flipkart.com/lc/pr/pv1/spotList1/spot1/productList?sid=j9e,m38,1vj&filterNone=true&start=1&ajax=true&_=1460746573007",flipkart,"j9e,m38,1vj",50
69,Pop-up Toasters,"http://www.flipkart.com/lc/pr/pv1/spotList1/spot1/productList?sid=j9e,m38,txh&filterNone=true&start=1&ajax=true&_=1460746573007",flipkart,"j9e,m38,txh",50
70,Hand Blenders,"http://www.flipkart.com/lc/pr/pv1/spotList1/spot1/productList?sid=j9e,m38,u7m&filterNone=true&start=1&ajax=true&_=1460746573007",flipkart,"j9e,m38,u7m",50
71,Food Processors,"http://www.flipkart.com/lc/pr/pv1/spotList1/spot1/productList?sid=j9e,m38,rj3&filterNone=true&start=1&ajax=true&_=1460746573007",flipkart,"j9e,m38,rj3",50
72,Microwave Ovens,"http://www.flipkart.com/lc/pr/pv1/spotList1/spot1/productList?sid=j9e,m38,o49&filterNone=true&start=1&ajax=true&_=1460746573007",flipkart,"j9e,m38,o49",50
73,Coffee And Tea Maker,"http://www.flipkart.com/lc/pr/pv1/spotList1/spot1/productList?sid=j9e,m38,wqo&filterNone=true&start=1&ajax=true&_=1460746573007",flipkart,"j9e,m38,wqo",50
74,Electric Kettle,"http://www.flipkart.com/lc/pr/pv1/spotList1/spot1/productList?sid=j9e,m38,xrv&filterNone=true&start=1&ajax=true&_=1460746573007",flipkart,"j9e,m38,xrv",50
75,Irons,"http://www.flipkart.com/lc/pr/pv1/spotList1/spot1/productList?sid=j9e,abm,a0u&filterNone=true&start=1&ajax=true&_=1460746573007",flipkart,"j9e,abm,a0u",50
76,Stabilizers,"http://www.flipkart.com/lc/pr/pv1/spotList1/spot1/productList?sid=j9e,abm,xf4&filterNone=true&start=1&ajax=true&_=1460746573007",flipkart,"j9e,abm,xf4",50
77,LED Lights,"http://www.flipkart.com/lc/pr/pv1/spotList1/spot1/productList?sid=r4l,paf,m99&filterNone=true&start=1&ajax=true&_=1460746573007",flipkart,"r4l,paf,m99",50
78,Emergency Lights,"http://www.flipkart.com/lc/pr/pv1/spotList1/spot1/productList?sid=j9e,abm,f6f&filterNone=true&start=1&ajax=true&_=1460746573007",flipkart,"j9e,abm,f6f",50
79,Trimmers,"http://www.flipkart.com/lc/pr/pv1/spotList1/spot1/productList?sid= zlw,79s,by3&filterNone=true&start=1&ajax=true&_=1460746573007",flipkart,"zlw,79s,by3",50
80,Shavers,"http://www.flipkart.com/lc/pr/pv1/spotList1/spot1/productList?sid= zlw,79s,u3j&filterNone=true&start=1&ajax=true&_=1460746573007",flipkart,"zlw,79s,u3j",50
81,Epilators,"http://www.flipkart.com/lc/pr/pv1/spotList1/spot1/productList?sid= zlw,79s,k32&filterNone=true&start=1&ajax=true&_=1460746573007",flipkart,"zlw,79s,k32",50
82,Hair Dryers,"http://www.flipkart.com/lc/pr/pv1/spotList1/spot1/productList?sid= zlw,79s,mh8&filterNone=true&start=1&ajax=true&_=1460746573007",flipkart,"zlw,79s,mh8",50
83,Hair Straighteners,"http://www.flipkart.com/lc/pr/pv1/spotList1/spot1/productList?sid= zlw,79s,dk5&filterNone=true&start=1&ajax=true&_=1460746573007",flipkart,"zlw,79s,dk5",50
84,Hair Curler,"http://www.flipkart.com/lc/pr/pv1/spotList1/spot1/productList?sid= zlw,79s,76i&filterNone=true&start=1&ajax=true&_=1460746573007",flipkart,"zlw,79s,76i",50
85,Hair Stylers,"http://www.flipkart.com/lc/pr/pv1/spotList1/spot1/productList?sid= zlw,79s,rtx&filterNone=true&start=1&ajax=true&_=1460746573007",flipkart,"zlw,79s,rtx",50
86,Cricket Bats,"http://www.flipkart.com/lc/pr/pv1/spotList1/spot1/productList?sid=dep,v5l,w5e,620&filterNone=true&start=1&ajax=true&_=1460746573007",flipkart,"dep,v5l,w5e,620",50
87,Cricket Balls,"http://www.flipkart.com/lc/pr/pv1/spotList1/spot1/productList?sid=dep,v5l,w5e,bsh&filterNone=true&start=1&ajax=true&_=1460746573007",flipkart,"dep,v5l,w5e,bsh",50
88,Cricket Gloves,"http://www.flipkart.com/lc/pr/pv1/spotList1/spot1/productList?sid=dep,v5l,w5e,7k7&filterNone=true&start=1&ajax=true&_=1460746573007",flipkart,"dep,v5l,w5e,7k7",50
89,Cricket Helmets,"http://www.flipkart.com/lc/pr/pv1/spotList1/spot1/productList?sid=dep,v5l,w5e,8j3&filterNone=true&start=1&ajax=true&_=1460746573007",flipkart,"dep,v5l,w5e,8j3",50
90,Cricket Kit Bags,"http://www.flipkart.com/lc/pr/pv1/spotList1/spot1/productList?sid=dep,v5l,w5e,oz7&filterNone=true&start=1&ajax=true&_=1460746573007",flipkart,"dep,v5l,w5e,oz7",50
91,Cricket Sets,"http://www.flipkart.com/lc/pr/pv1/spotList1/spot1/productList?sid=dep,v5l,w5e,hek&filterNone=true&start=1&ajax=true&_=1460746573007",flipkart,"dep,v5l,w5e,hek",50
92,Footballs,"http://www.flipkart.com/lc/pr/pv1/spotList1/spot1/productList?sid=dep,v5l,szk,6ll&filterNone=true&start=1&ajax=true&_=1460746573007",flipkart,"dep,v5l,szk,6ll",50
93,Football Gloves,"http://www.flipkart.com/lc/pr/pv1/spotList1/spot1/productList?sid=dep,v5l,szk,00p&filterNone=true&start=1&ajax=true&_=1460746573007",flipkart,"dep,v5l,szk,00p",50
94,Football Bags,"http://www.flipkart.com/lc/pr/pv1/spotList1/spot1/productList?sid=dep,v5l,szk,t6g&filterNone=true&start=1&ajax=true&_=1460746573007",flipkart,"dep,v5l,szk,t6g",50
95,Badminton Racquets,"http://www.flipkart.com/lc/pr/pv1/spotList1/spot1/productList?sid=dep,9ge,cbh,wyj&filterNone=true&start=1&ajax=true&_=1460746573007",flipkart,"dep,9ge,cbh,wyj",50
96,Badminton Shuttlecocks,"http://www.flipkart.com/lc/pr/pv1/spotList1/spot1/productList?sid=dep,9ge,cbh,pd3&filterNone=true&start=1&ajax=true&_=1460746573007",flipkart,"dep,9ge,cbh,pd3",50
97,Badminton Bags,"http://www.flipkart.com/lc/pr/pv1/spotList1/spot1/productList?sid=dep,9ge,cbh,yh3&filterNone=true&start=1&ajax=true&_=1460746573007",flipkart,"dep,9ge,cbh,yh3",50
98,Badminton Sets,"http://www.flipkart.com/lc/pr/pv1/spotList1/spot1/productList?sid=dep,9ge,cbh,yeq&filterNone=true&start=1&ajax=true&_=1460746573007",flipkart,"dep,9ge,cbh,yeq",50
99,Lawn Tennis Racquets,"http://www.flipkart.com/lc/pr/pv1/spotList1/spot1/productList?sid=dep,9ge,m4z,y1s&filterNone=true&start=1&ajax=true&_=1460746573007",flipkart,"dep,9ge,m4z,y1s",50
100,Lawn Tennis Balls,"http://www.flipkart.com/lc/pr/pv1/spotList1/spot1/productList?sid=dep,9ge,m4z,elv&filterNone=true&start=1&ajax=true&_=1460746573007",flipkart,"dep,9ge,m4z,elv",50
101,Lawn Tennis Kits,"http://www.flipkart.com/lc/pr/pv1/spotList1/spot1/productList?sid=dep,9ge,m4z,dbh&filterNone=true&start=1&ajax=true&_=1460746573007",flipkart,"dep,9ge,m4z,dbh",50
102,Boxing Gloves,"http://www.flipkart.com/lc/pr/pv1/spotList1/spot1/productList?sid=dep,p0d,1l8,h47&filterNone=true&start=1&ajax=true&_=1460746573007",flipkart,"dep,p0d,1l8,h47",50
103,Boxing Punching Bags,"http://www.flipkart.com/lc/pr/pv1/spotList1/spot1/productList?sid=dep,p0d,1l8,lfl&filterNone=true&start=1&ajax=true&_=1460746573007",flipkart,"dep,p0d,1l8,lfl",50
104,Basket Balls,"http://www.flipkart.com/lc/pr/pv1/spotList1/spot1/productList?sid=dep,v5l,skx,n6r&filterNone=true&start=1&ajax=true&_=1460746573007",flipkart,"dep,v5l,skx,n6r",50
105,Volleyballs,"http://www.flipkart.com/lc/pr/pv1/spotList1/spot1/productList?sid=dep,v5l,e69&filterNone=true&start=1&ajax=true&_=1460746573007",flipkart,"dep,v5l,e69",50
106,Table Tennis,"http://www.flipkart.com/lc/pr/pv1/spotList1/spot1/productList?sid=dep,9ge,kgj&filterNone=true&start=1&ajax=true&_=1460746573007",flipkart,"dep,9ge,kgj",50
107,Proteins And Sports Supplements,"http://www.flipkart.com/lc/pr/pv1/spotList1/spot1/productList?sid=7jv,owt,d9u&filterNone=true&start=1&ajax=true&_=1460746573007",flipkart,"7jv,owt,d9u",50
108,Treadmills,"http://www.flipkart.com/lc/pr/pv1/spotList1/spot1/productList?sid=dep,xnh,eo6&filterNone=true&start=1&ajax=true&_=1460746573007",flipkart,"dep,xnh,eo6",50
109,Dumbbells,"http://www.flipkart.com/lc/pr/pv1/spotList1/spot1/productList?sid=dep,xnh,f92&filterNone=true&start=1&ajax=true&_=1460746573007",flipkart,"dep,xnh,f92",50
110,Home Gym,"http://www.flipkart.com/lc/pr/pv1/spotList1/spot1/productList?sid=dep,xnh,ikc&filterNone=true&start=1&ajax=true&_=1460746573007",flipkart,"dep,xnh,ikc",50
111,Abdominal Exercisers,"http://www.flipkart.com/lc/pr/pv1/spotList1/spot1/productList?sid=dep,xnh,abo&filterNone=true&start=1&ajax=true&_=1460746573007",flipkart,"dep,xnh,abo",50
112,Exercise Bikes,"http://www.flipkart.com/lc/pr/pv1/spotList1/spot1/productList?sid=dep,xnh,mbw&filterNone=true&start=1&ajax=true&_=1460746573007",flipkart,"dep,xnh,mbw",50
113,Weighing Scales,"http://www.flipkart.com/lc/pr/pv1/spotList1/spot1/productList?sid=t06,nyl,bvv,o4o&filterNone=true&start=1&ajax=true&_=1460746573007",flipkart,"t06,nyl,bvv,o4o",50
114,Fitness Bands,"http://www.flipkart.com/lc/pr/pv1/spotList1/spot1/productList?sid=ajy,q7p&filterNone=true&start=1&ajax=true&_=1460746573007",flipkart,"ajy,q7p",50
115,Pedometers,"http://www.flipkart.com/lc/pr/pv1/spotList1/spot1/productList?sid=zlw,nyl,bvv,7rg&filterNone=true&start=1&ajax=true&_=1460746573007",flipkart,"zlw,nyl,bvv,7rg",50
116,BP Monitors,"http://www.flipkart.com/lc/pr/pv1/spotList1/spot1/productList?sid=zlw,nyl,bvv,kbk&filterNone=true&start=1&ajax=true&_=1460746573007",flipkart,"zlw,nyl,bvv,kbk",50
117,Nebulizers,"http://www.flipkart.com/lc/pr/pv1/spotList1/spot1/productList?sid=zlw,nyl,bvv,dxu&filterNone=true&start=1&ajax=true&_=1460746573007",flipkart,"zlw,nyl,bvv,dxu",50
118,Body Fat Analyzers,"http://www.flipkart.com/lc/pr/pv1/spotList1/spot1/productList?sid=t06,nyl,bvv,hrg&filterNone=true&start=1&ajax=true&_=1460746573007",flipkart,"t06,nyl,bvv,hrg",50
119,Electric Massagers,"http://www.flipkart.com/lc/pr/pv1/spotList1/spot1/productList?sid=zlw,nyl,bvv,d9z&filterNone=true&start=1&ajax=true&_=1460746573007",flipkart,"zlw,nyl,bvv,d9z",50
120,Calculators,"http://www.flipkart.com/lc/pr/pv1/spotList1/spot1/productList?sid=dgv,qtq&filterNone=true&start=1&ajax=true&_=1460746573007",flipkart,"dgv,qtq",50
121,Helmets,"http://www.flipkart.com/lc/pr/pv1/spotList1/spot1/productList?sid=0hx,bwd,bgt,c0x,wnn&filterNone=true&start=1&ajax=true&_=1460746573007",flipkart,"0hx,bwd,bgt,c0x,wnn",50
