<?xml version="1.0" encoding="UTF-8" standalone="no"?>
<svg width="32px" height="32px" viewBox="0 0 32 32" version="1.1" xmlns="http://www.w3.org/2000/svg" xmlns:xlink="http://www.w3.org/1999/xlink">
    <!-- Generator: Sketch 47.1 (45422) - http://www.bohemiancoding.com/sketch -->
    <title>ic-mobiles-s</title>
    <desc>Created with Sketch.</desc>
    <defs>
        <rect id="path-1" x="0" y="0" width="344" height="260" rx="4"></rect>
        <filter x="-1.5%" y="-1.5%" width="102.9%" height="103.8%" filterUnits="objectBoundingBox" id="filter-2">
            <feOffset dx="0" dy="1" in="SourceAlpha" result="shadowOffsetOuter1"></feOffset>
            <feGaussianBlur stdDeviation="1.5" in="shadowOffsetOuter1" result="shadowBlurOuter1"></feGaussianBlur>
            <feColorMatrix values="0 0 0 0 0.141176471   0 0 0 0 0.152941176   0 0 0 0 0.17254902  0 0 0 0.08 0" type="matrix" in="shadowBlurOuter1"></feColorMatrix>
        </filter>
        <rect id="path-3" x="0" y="0" width="72" height="72" rx="4"></rect>
        <filter x="-78.1%" y="-62.5%" width="256.2%" height="256.2%" filterUnits="objectBoundingBox" id="filter-4">
            <feOffset dx="0" dy="5" in="SourceAlpha" result="shadowOffsetOuter1"></feOffset>
            <feGaussianBlur stdDeviation="7.5" in="shadowOffsetOuter1" result="shadowBlurOuter1"></feGaussianBlur>
            <feColorMatrix values="0 0 0 0 0.968627451   0 0 0 0 0.364705882   0 0 0 0 0.203921569  0 0 0 0.227609828 0" type="matrix" in="shadowBlurOuter1" result="shadowMatrixOuter1"></feColorMatrix>
            <feMerge>
                <feMergeNode in="shadowMatrixOuter1"></feMergeNode>
                <feMergeNode in="SourceGraphic"></feMergeNode>
            </feMerge>
        </filter>
        <linearGradient x1="46.1143663%" y1="-26.2321429%" x2="68.0088976%" y2="96.0714286%" id="linearGradient-5">
            <stop stop-color="#F59F4D" offset="0%"></stop>
            <stop stop-color="#F75D34" offset="100%"></stop>
        </linearGradient>
    </defs>
    <g id="updated-design" stroke="none" stroke-width="1" fill="none" fill-rule="evenodd">
        <g id="Nayashopi-Home" transform="translate(-124.000000, -419.000000)">
            <g id="Top-Categories" transform="translate(8.000000, 356.000000)">
                <g id="Rectangle">
                    <use fill="black" fill-opacity="1" filter="url(#filter-2)" xlink:href="#path-1"></use>
                    <use fill="#FFFFFF" fill-rule="evenodd" xlink:href="#path-1"></use>
                </g>
                <g id="search" transform="translate(0.000000, 14.000000)">
                    <g id="searchbox" transform="translate(16.000000, 38.000000)">
                        <g id="Group-8" transform="translate(80.000000, 0.000000)">
                            <g id="Rectangle-2">
                                <use fill="#FFFFFF" fill-rule="evenodd" xlink:href="#path-3"></use>
                                <rect stroke="#EDF0F1" stroke-width="1" x="0.5" y="0.5" width="71" height="71" rx="4"></rect>
                            </g>
                            <g id="Group" transform="translate(20.000000, 11.000000)" fill-rule="nonzero" fill="url(#linearGradient-5)">
                                <g id="noun_1439447_cc" filter="url(#filter-4)">
                                    <g id="noun_1193943_cc">
                                        <g id="Group" transform="translate(9.000000, 5.000000)">
                                            <path d="M12.6746829,0.19297561 L1.3499878,0.19297561 C0.654097561,0.19297561 0.0877926829,0.759280488 0.0877926829,1.45517073 L0.0877926829,21.5451098 C0.0877926829,22.241 0.654097561,22.8073049 1.3499878,22.8073049 L12.6746829,22.8073049 C13.3705732,22.8073049 13.936878,22.241 13.936878,21.5451098 L13.936878,1.45517073 C13.936878,0.759 13.3705732,0.19297561 12.6746829,0.19297561 Z M13.0954146,21.5451098 C13.0954146,21.7770732 12.9066463,21.9658415 12.6746829,21.9658415 L1.3499878,21.9658415 C1.11802439,21.9658415 0.929256098,21.7770732 0.929256098,21.5451098 L0.929256098,1.45517073 C0.929256098,1.22320732 1.11802439,1.03443902 1.3499878,1.03443902 L12.6746829,1.03443902 C12.9066463,1.03443902 13.0954146,1.22320732 13.0954146,1.45517073 L13.0954146,21.5451098 Z" id="Shape"></path>
                                            <rect id="Rectangle-path" x="1.52529268" y="3.8042561" width="10.9740854" height="1"></rect>
                                            <rect id="Rectangle-path" x="1.52529268" y="17.7585244" width="10.9740854" height="1"></rect>
                                            <circle id="Oval" cx="7.01219512" cy="20.3179756" r="1.05182927"></circle>
                                            <rect id="Rectangle-path" x="5.82881707" y="1.91096341" width="2.3667561" height="1"></rect>
                                        </g>
                                    </g>
                                </g>
                            </g>
                        </g>
                    </g>
                </g>
            </g>
        </g>
    </g>
</svg>