<?xml version="1.0" encoding="UTF-8" standalone="no"?>
<svg width="32px" height="32px" viewBox="0 0 32 32" version="1.1" xmlns="http://www.w3.org/2000/svg" xmlns:xlink="http://www.w3.org/1999/xlink">
    <!-- Generator: Sketch 47.1 (45422) - http://www.bohemiancoding.com/sketch -->
    <title>ic-deals-s</title>
    <desc>Created with Sketch.</desc>
    <defs>
        <rect id="path-1" x="0" y="0" width="344" height="260" rx="4"></rect>
        <filter x="-1.5%" y="-1.5%" width="102.9%" height="103.8%" filterUnits="objectBoundingBox" id="filter-2">
            <feOffset dx="0" dy="1" in="SourceAlpha" result="shadowOffsetOuter1"></feOffset>
            <feGaussianBlur stdDeviation="1.5" in="shadowOffsetOuter1" result="shadowBlurOuter1"></feGaussianBlur>
            <feColorMatrix values="0 0 0 0 0.141176471   0 0 0 0 0.152941176   0 0 0 0 0.17254902  0 0 0 0.08 0" type="matrix" in="shadowBlurOuter1"></feColorMatrix>
        </filter>
        <rect id="path-3" x="0" y="0" width="72" height="72" rx="4"></rect>
        <linearGradient x1="46.1143663%" y1="-26.2321429%" x2="68.0088976%" y2="96.0714286%" id="linearGradient-4">
            <stop stop-color="#F59F4D" offset="0%"></stop>
            <stop stop-color="#F75D34" offset="100%"></stop>
        </linearGradient>
        <path d="M0.587505863,12.8160713 L10.8443986,2.5840742 C11.2511154,2.17834455 11.812664,1.96710177 12.3859534,2.00417361 L19.5653537,2.46843054 L19.5653537,2.46843054 C20.0914867,2.50245301 20.5008233,2.93911438 20.5008233,3.46634629 L20.5008233,10.1326655 C20.5008233,10.6639407 20.2894419,11.1733849 19.9133175,11.5485964 L9.60072207,21.836161 L9.60072207,21.836161 C8.81939683,22.6155898 7.55439197,22.6148213 6.77401437,21.8344437 L0.585786438,15.6462157 L0.585786438,15.6462157 C-0.195262146,14.8651671 -0.195262146,13.5988372 0.585786438,12.8177886 C0.586359231,12.8172158 0.586932373,12.8166434 0.587505863,12.8160713 L0.587505863,12.8160713 Z M15.6715729,7.71583725 C16.5,7.71583725 17.1715729,7.04426438 17.1715729,6.21583725 C17.1715729,5.38741013 16.5,4.71583725 15.6715729,4.71583725 C14.8431458,4.71583725 14.1715729,5.38741013 14.1715729,6.21583725 C14.1715729,7.04426438 14.8431458,7.71583725 15.6715729,7.71583725 Z" id="path-5"></path>
    </defs>
    <g id="updated-design" stroke="none" stroke-width="1" fill="none" fill-rule="evenodd">
        <g id="Nayashopi-Home" transform="translate(-45.000000, -418.000000)">
            <g id="Top-Categories" transform="translate(8.000000, 356.000000)">
                <g id="Rectangle">
                    <use fill="black" fill-opacity="1" filter="url(#filter-2)" xlink:href="#path-1"></use>
                    <use fill="#FFFFFF" fill-rule="evenodd" xlink:href="#path-1"></use>
                </g>
                <g id="search" transform="translate(0.000000, 14.000000)">
                    <g id="searchbox" transform="translate(16.000000, 38.000000)">
                        <g id="Group-11">
                            <g id="Rectangle-2">
                                <use fill="#FFFFFF" fill-rule="evenodd" xlink:href="#path-3"></use>
                                <rect stroke="#EDF0F1" stroke-width="1" x="0.5" y="0.5" width="71" height="71" rx="4"></rect>
                            </g>
                            <g id="noun_1038164_cc" transform="translate(25.000000, 16.000000)">
                                <g id="Group">
                                    <g id="Combined-Shape">
                                        <use fill="#FFFFFF" fill-rule="evenodd" xlink:href="#path-5"></use>
                                        <path stroke="url(#linearGradient-4)" stroke-width="1" d="M0.940629397,13.170054 L0.939339828,13.171342 C0.353553391,13.7571284 0.353553391,14.7068759 0.939339828,15.2926623 L7.12756777,21.4808903 C7.71285096,22.0661735 8.66160461,22.0667499 9.24759854,21.4821783 L19.560194,11.1946137 C19.8422873,10.9132051 20.0008233,10.5311219 20.0008233,10.1326655 L20.0008233,3.46634629 C20.0008233,3.20273033 19.796155,2.98439965 19.5330885,2.96738841 L12.3536882,2.50313149 C11.9237211,2.4753276 11.5025597,2.63375969 11.1975221,2.93805693 L0.940629397,13.170054 Z M15.6715729,8.21583725 C14.5670034,8.21583725 13.6715729,7.32040675 13.6715729,6.21583725 C13.6715729,5.11126775 14.5670034,4.21583725 15.6715729,4.21583725 C16.7761424,4.21583725 17.6715729,5.11126775 17.6715729,6.21583725 C17.6715729,7.32040675 16.7761424,8.21583725 15.6715729,8.21583725 Z"></path>
                                    </g>
                                    <path d="M16.120429,6.10498047 C15.5629746,4.05436198 16.9408229,3.17016602 20.2539739,3.45239258 C23.567125,3.73461914 24.6202662,2.58382161 23.4133978,-4.4408921e-16" id="Path-4" stroke="url(#linearGradient-4)" stroke-linecap="round" stroke-linejoin="round"></path>
                                </g>
                            </g>
                        </g>
                    </g>
                </g>
            </g>
        </g>
    </g>
</svg>