<?xml version="1.0" encoding="UTF-8" standalone="no"?>
<svg width="32px" height="32px" viewBox="0 0 32 32" version="1.1" xmlns="http://www.w3.org/2000/svg" xmlns:xlink="http://www.w3.org/1999/xlink">
    <!-- Generator: Sketch 47.1 (45422) - http://www.bohemiancoding.com/sketch -->
    <title>ic-electronics-s</title>
    <desc>Created with Sketch.</desc>
    <defs>
        <rect id="path-1" x="0" y="0" width="344" height="260" rx="4"></rect>
        <filter x="-1.5%" y="-1.5%" width="102.9%" height="103.8%" filterUnits="objectBoundingBox" id="filter-2">
            <feOffset dx="0" dy="1" in="SourceAlpha" result="shadowOffsetOuter1"></feOffset>
            <feGaussianBlur stdDeviation="1.5" in="shadowOffsetOuter1" result="shadowBlurOuter1"></feGaussianBlur>
            <feColorMatrix values="0 0 0 0 0.141176471   0 0 0 0 0.152941176   0 0 0 0 0.17254902  0 0 0 0.08 0" type="matrix" in="shadowBlurOuter1"></feColorMatrix>
        </filter>
        <rect id="path-3" x="0" y="0" width="72" height="72" rx="4"></rect>
        <linearGradient x1="46.1143663%" y1="-26.2321429%" x2="68.0088976%" y2="96.0714286%" id="linearGradient-4">
            <stop stop-color="#F59F4D" offset="0%"></stop>
            <stop stop-color="#F75D34" offset="100%"></stop>
        </linearGradient>
        <path d="M26,10 L23,1 C14,-1 4,3 0,13 L23,13 L26,10 Z M18,8 L17,8 C17,7.4 16.6,7 16,7 L14,7 C13.4,7 13,7.4 13,8 L9,8 C11,6 14,4 18,4 C19,4 21,4 21,6 C21,8 19,8 18,8 Z" id="path-5"></path>
    </defs>
    <g id="updated-design" stroke="none" stroke-width="1" fill="none" fill-rule="evenodd">
        <g id="Nayashopi-Home" transform="translate(-284.000000, -420.000000)">
            <g id="Top-Categories" transform="translate(8.000000, 356.000000)">
                <g id="Rectangle">
                    <use fill="black" fill-opacity="1" filter="url(#filter-2)" xlink:href="#path-1"></use>
                    <use fill="#FFFFFF" fill-rule="evenodd" xlink:href="#path-1"></use>
                </g>
                <g id="search" transform="translate(0.000000, 14.000000)">
                    <g id="searchbox" transform="translate(16.000000, 38.000000)">
                        <g id="Group-10" transform="translate(240.000000, 0.000000)">
                            <g id="Rectangle-2">
                                <use fill="#FFFFFF" fill-rule="evenodd" xlink:href="#path-3"></use>
                                <rect stroke="#EDF0F1" stroke-width="1" x="0.5" y="0.5" width="71" height="71" rx="4"></rect>
                            </g>
                            <g id="noun_1336895_cc" transform="translate(23.000000, 19.000000)" fill-rule="nonzero">
                                <g id="Group">
                                    <g id="Shape">
                                        <use fill="#FFFFFF" fill-rule="evenodd" xlink:href="#path-5"></use>
                                        <path stroke="url(#linearGradient-4)" stroke-width="1" d="M22.7928932,12.5 L22.6464466,12.6464466 L23,12.5 L22.7928932,12.5 Z M0.752659162,12.5 L0,12.5 L0.464238345,13.1856953 C0.556848747,12.9541693 0.653018734,12.7255941 0.752659162,12.5 Z M22.6158679,1.42874258 C22.707753,1.44789025 22.7996437,1.46767329 22.8915348,1.48809353 L22.5256584,1.15811388 L22.6158679,1.42874258 Z M25.4279386,9.86495462 L25.5256584,10.1581139 L25.6464466,9.64644661 L25.4279386,9.86495462 Z M25.4279386,9.86495462 L22.7928932,12.5 L0.752659162,12.5 C4.59020174,3.81148752 13.5755226,-0.455149543 22.6158679,1.42874258 L25.4279386,9.86495462 Z M18,8.5 L16.5,8.5 L16.5,8 C16.5,7.67614237 16.3238576,7.5 16,7.5 L14,7.5 C13.6761424,7.5 13.5,7.67614237 13.5,8 L13.5,8.5 L7.79289322,8.5 L8.64644661,7.64644661 C11.2330551,5.05983816 14.3527314,3.5 18,3.5 C18.5821745,3.5 18.9053352,3.5143627 19.3044217,3.58087711 C20.6503653,3.80520104 21.5,4.56043192 21.5,6 C21.5,7.43956808 20.6503653,8.19479896 19.3044217,8.41912289 C18.9053352,8.4856373 18.5821745,8.5 18,8.5 Z"></path>
                                    </g>
                                    <path d="M0,16 C0,16.6 0.5,17 1.1,17 L24,17 C24.6,17 25,16.6 25,16 L25,15 L0,15 L0,16 Z" id="Shape" fill="url(#linearGradient-4)"></path>
                                </g>
                            </g>
                        </g>
                    </g>
                </g>
            </g>
        </g>
    </g>
</svg>