<?xml version="1.0" encoding="UTF-8" standalone="no"?>
<svg width="32px" height="32px" viewBox="0 0 32 32" version="1.1" xmlns="http://www.w3.org/2000/svg" xmlns:xlink="http://www.w3.org/1999/xlink">
    <!-- Generator: Sketch 47.1 (45422) - http://www.bohemiancoding.com/sketch -->
    <title>ic-man-s</title>
    <desc>Created with Sketch.</desc>
    <defs>
        <rect id="path-1" x="0" y="0" width="344" height="260" rx="4"></rect>
        <filter x="-1.5%" y="-1.5%" width="102.9%" height="103.8%" filterUnits="objectBoundingBox" id="filter-2">
            <feOffset dx="0" dy="1" in="SourceAlpha" result="shadowOffsetOuter1"></feOffset>
            <feGaussianBlur stdDeviation="1.5" in="shadowOffsetOuter1" result="shadowBlurOuter1"></feGaussianBlur>
            <feColorMatrix values="0 0 0 0 0.141176471   0 0 0 0 0.152941176   0 0 0 0 0.17254902  0 0 0 0.08 0" type="matrix" in="shadowBlurOuter1"></feColorMatrix>
        </filter>
        <rect id="path-3" x="0" y="0" width="72" height="72" rx="4"></rect>
        <linearGradient x1="46.1143663%" y1="-26.2321429%" x2="68.0088976%" y2="96.0714286%" id="linearGradient-4">
            <stop stop-color="#F59F4D" offset="0%"></stop>
            <stop stop-color="#F75D34" offset="100%"></stop>
        </linearGradient>
        <path d="M1.43598792,4.57791126 L6.80419922,3 L13.1764915,3 L18.5625425,4.57867495 L18.5625425,4.57867495 C19.414604,4.8284179 20,5.61002365 20,6.49793157 L20,19 L20,19 C20,20.1045695 19.1045695,21 18,21 L2,21 L2,21 C0.8954305,21 1.3527075e-16,20.1045695 0,19 L5.66492506e-17,6.49673652 L4.4408921e-16,6.49673652 C3.35421301e-16,5.60939571 0.584661938,4.82814673 1.43598792,4.57791126 Z" id="path-5"></path>
        <polygon id="path-6" points="14 0 16 8 10 7"></polygon>
        <polygon id="path-7" points="6 0 4 8 10 7"></polygon>
    </defs>
    <g id="updated-design" stroke="none" stroke-width="1" fill="none" fill-rule="evenodd">
        <g id="Nayashopi-Home" transform="translate(-44.000000, -497.000000)">
            <g id="Top-Categories" transform="translate(8.000000, 356.000000)">
                <g id="Rectangle">
                    <use fill="black" fill-opacity="1" filter="url(#filter-2)" xlink:href="#path-1"></use>
                    <use fill="#FFFFFF" fill-rule="evenodd" xlink:href="#path-1"></use>
                </g>
                <g id="search" transform="translate(0.000000, 14.000000)">
                    <g id="searchbox" transform="translate(16.000000, 38.000000)">
                        <g id="Group-10" transform="translate(0.000000, 80.000000)">
                            <g id="Rectangle-2">
                                <use fill="#FFFFFF" fill-rule="evenodd" xlink:href="#path-3"></use>
                                <rect stroke="#EDF0F1" stroke-width="1" x="0.5" y="0.5" width="71" height="71" rx="4"></rect>
                            </g>
                            <g id="Group-7" transform="translate(26.000000, 15.000000)">
                                <g id="Rectangle-3">
                                    <use fill="#FFFFFF" fill-rule="evenodd" xlink:href="#path-5"></use>
                                    <path stroke="url(#linearGradient-4)" stroke-width="1" d="M13.104725,3.5 L6.8761611,3.5 L1.57699094,5.05761758 C0.938496454,5.24529418 0.5,5.83123091 0.5,6.49673652 L0.5,19 C0.5,19.8284271 1.17157288,20.5 2,20.5 L18,20.5 C18.8284271,20.5 19.5,19.8284271 19.5,19 L19.5,6.49793157 C19.5,5.83200063 19.060953,5.24579632 18.4219068,5.0584891 L13.104725,3.5 Z"></path>
                                </g>
                                <path d="M12.9633789,11.6889648 L12.9633789,11.6889648" id="Path-5" stroke="url(#linearGradient-4)" stroke-width="2" stroke-linecap="round" stroke-linejoin="round"></path>
                                <path d="M12.9633789,16.6889648 L12.9633789,16.6889648" id="Path-5" stroke="url(#linearGradient-4)" stroke-width="2" stroke-linecap="round" stroke-linejoin="round"></path>
                                <path d="M10,5 L10,20.3774414" id="Path-5" stroke="url(#linearGradient-4)" stroke-linecap="round" stroke-linejoin="round"></path>
                                <path d="M10,0 L14,7 C12.598659,7.66666667 11.242295,8 9.9309082,8 C8.61952138,8 7.30921865,7.66666667 6,7 L10,0 Z" id="Triangle" stroke="url(#linearGradient-4)" fill="#FFFFFF" transform="translate(10.000000, 4.000000) scale(1, -1) translate(-10.000000, -4.000000) "></path>
                                <g id="Triangle">
                                    <use fill="#FFFFFF" fill-rule="evenodd" xlink:href="#path-6"></use>
                                    <path stroke="url(#linearGradient-4)" stroke-width="1" d="M13.8167355,1.32849501 L10.7902674,6.62481435 L15.3299696,7.3814314 L13.8167355,1.32849501 Z"></path>
                                </g>
                                <g id="Triangle">
                                    <use fill="#FFFFFF" fill-rule="evenodd" xlink:href="#path-7"></use>
                                    <path stroke="url(#linearGradient-4)" stroke-width="1" d="M6.18326445,1.32849501 L4.67003035,7.3814314 L9.20973265,6.62481435 L6.18326445,1.32849501 Z"></path>
                                </g>
                            </g>
                        </g>
                    </g>
                </g>
            </g>
        </g>
    </g>
</svg>