<?xml version="1.0" encoding="UTF-8" standalone="no"?>
<svg width="32px" height="32px" viewBox="0 0 32 32" version="1.1" xmlns="http://www.w3.org/2000/svg" xmlns:xlink="http://www.w3.org/1999/xlink" style="background: #FFFFFF;">
    <!-- Generator: Sketch 48.2 (47327) - http://www.bohemiancoding.com/sketch -->
    <title>ic-laptop-s</title>
    <desc>Created with Sketch.</desc>
    <defs>
        <rect id="path-1" x="0" y="0" width="72" height="72" rx="4"></rect>
        <linearGradient x1="46.1143663%" y1="-26.2321429%" x2="68.0088976%" y2="96.0714286%" id="linearGradient-2">
            <stop stop-color="#F59F4D" offset="0%"></stop>
            <stop stop-color="#F75D34" offset="100%"></stop>
        </linearGradient>
        <rect id="path-3" x="3" y="0" width="21" height="12" rx="1"></rect>
        <path d="M3.56511445,12 L23.4347528,12 C23.8058646,12 24.1464565,12.2055179 24.3194537,12.5338408 L25.9001886,15.5338408 C26.1576413,16.0224476 25.9702538,16.6272482 25.481647,16.8847009 C25.3379319,16.960426 25.1779326,17 25.0154878,17 L1.98437949,17 C1.43209474,17 0.98437949,16.5522847 0.98437949,16 C0.98437949,15.8375552 1.02395349,15.6775559 1.09967863,15.5338408 L2.6804136,12.5338408 C2.85341075,12.2055179 3.19400271,12 3.56511445,12 Z" id="path-4"></path>
    </defs>
    <g id="Artboard" stroke="none" stroke-width="1" fill="none" fill-rule="evenodd" transform="translate(-204.000000, -32.000000)">
        <g id="Top-Categories" transform="translate(24.000000, 20.000000)">
            <g id="search">
                <g id="searchbox">
                    <g id="Group-9" transform="translate(160.000000, 0.000000)">
                        <g id="Rectangle-2">
                            <use fill="#FFFFFF" fill-rule="evenodd" xlink:href="#path-1"></use>
                            <rect stroke="#EDF0F1" stroke-width="1" x="0.5" y="0.5" width="71" height="71" rx="4"></rect>
                        </g>
                        <g id="Group-6" transform="translate(23.000000, 19.000000)">
                            <g id="Rectangle-2">
                                <use fill="#FFFFFF" fill-rule="evenodd" xlink:href="#path-3"></use>
                                <rect stroke="url(#linearGradient-2)" stroke-width="1" x="3.5" y="0.5" width="20" height="11" rx="1"></rect>
                            </g>
                            <g id="Rectangle-2">
                                <use fill="#FFFFFF" fill-rule="evenodd" xlink:href="#path-4"></use>
                                <path stroke="url(#linearGradient-2)" stroke-width="1" d="M3.56511445,12.5 C3.37955858,12.5 3.2092626,12.602759 3.12276403,12.7669204 L1.54202906,15.7669204 C1.50416649,15.8387779 1.48437949,15.9187776 1.48437949,16 C1.48437949,16.2761424 1.70823711,16.5 1.98437949,16.5 L25.0154878,16.5 C25.0967102,16.5 25.1767099,16.480213 25.2485674,16.4423504 C25.4928708,16.3136241 25.5865645,16.0112238 25.4578382,15.7669204 L23.8771033,12.7669204 C23.7906047,12.602759 23.6203087,12.5 23.4347528,12.5 L3.56511445,12.5 Z"></path>
                            </g>
                            <path d="M11,15 L15.6069509,15" id="Path-6" stroke="#FFFFFF" stroke-linecap="round" stroke-linejoin="round"></path>
                        </g>
                    </g>
                </g>
            </g>
        </g>
    </g>
</svg>