<?xml version="1.0" encoding="UTF-8" standalone="no"?>
<svg width="32px" height="32px" viewBox="0 0 32 32" version="1.1" xmlns="http://www.w3.org/2000/svg" xmlns:xlink="http://www.w3.org/1999/xlink" style="background: #FFFFFF;">
    <!-- Generator: Sketch 48.2 (47327) - http://www.bohemiancoding.com/sketch -->
    <title>ic-purifier</title>
    <desc>Created with Sketch.</desc>
    <defs>
        <rect id="path-1" x="0" y="0" width="72" height="72" rx="4"></rect>
        <linearGradient x1="46.1143663%" y1="-26.2321429%" x2="68.0088976%" y2="96.0714286%" id="linearGradient-2">
            <stop stop-color="#F59F4D" offset="0%"></stop>
            <stop stop-color="#F75D34" offset="100%"></stop>
        </linearGradient>
        <rect id="path-3" x="9.5" y="16" width="1" height="2" rx="0.5"></rect>
    </defs>
    <g id="Artboard" stroke="none" stroke-width="1" fill="none" fill-rule="evenodd" transform="translate(-205.000000, -358.000000)">
        <g id="Group-9" transform="translate(186.000000, 346.000000)">
            <g id="Rectangle-2">
                <use fill="#FFFFFF" fill-rule="evenodd" xlink:href="#path-1"></use>
                <rect stroke="#EDF0F1" stroke-width="1" x="0.5" y="0.5" width="71" height="71" rx="4"></rect>
            </g>
            <g id="purifier" transform="translate(26.000000, 18.000000)">
                <rect id="Rectangle-4" fill="url(#linearGradient-2)" transform="translate(14.500000, 2.500000) rotate(-90.000000) translate(-14.500000, -2.500000) " x="14" y="1" width="1" height="3" rx="0.5"></rect>
                <rect id="Rectangle-4" fill="url(#linearGradient-2)" transform="translate(1.500000, 13.500000) rotate(-90.000000) translate(-1.500000, -13.500000) " x="1" y="12" width="1" height="3" rx="0.5"></rect>
                <rect id="Rectangle-4" fill="url(#linearGradient-2)" transform="translate(1.500000, 16.500000) rotate(-90.000000) translate(-1.500000, -16.500000) " x="1" y="15" width="1" height="3" rx="0.5"></rect>
                <path d="M3,14 L17,14" id="Path-2" stroke="url(#linearGradient-2)" stroke-linecap="round" stroke-linejoin="round"></path>
                <rect id="Rectangle-15" stroke="url(#linearGradient-2)" fill="#FFFFFF" stroke-linecap="round" stroke-linejoin="round" x="9" y="12" width="2" height="4"></rect>
                <g id="Rectangle-15">
                    <use fill="#FFFFFF" fill-rule="evenodd" xlink:href="#path-3"></use>
                    <rect stroke="url(#linearGradient-2)" stroke-width="1" x="10" y="16.5" width="1" height="1" rx="0.5"></rect>
                </g>
                <rect id="Rectangle-15" fill="url(#linearGradient-2)" transform="translate(8.543270, 11.201141) rotate(-59.000000) translate(-8.543270, -11.201141) " x="8.04326999" y="9.70114076" width="1" height="3" rx="0.5"></rect>
                <path d="M4.10249844,2.22044605e-16 L15.8975016,-4.4408921e-16 C17.0020711,-6.46995335e-16 17.8975016,0.8954305 17.8975016,2 C17.8975016,2.03330733 17.8966695,2.06660946 17.8950062,2.09987523 L17.0950062,18.0998752 C17.0417853,19.1642939 16.1632499,20 15.0975016,20 L4.90249844,20 C3.83675006,20 2.9582147,19.1642939 2.90499376,18.0998752 L2.10499376,2.09987523 C2.04983419,0.996683863 2.89943183,0.0576548908 4.00262321,0.00249532224 C4.03588898,0.000832033605 4.06919111,6.11845708e-18 4.10249844,0 Z" id="Rectangle-4" stroke="url(#linearGradient-2)" stroke-linecap="round" stroke-linejoin="round"></path>
            </g>
        </g>
    </g>
</svg>