<?phpxml version="1.0" standalone="no"?>
<!DOCTYPE svg PUBLIC "-//W3C//DTD SVG 1.1//EN" "http://www.w3.org/Graphics/SVG/1.1/DTD/svg11.dtd">
<svg xmlns="http://www.w3.org/2000/svg">
<metadata>
This is a custom SVG webfont generated by Font Squirrel.
Copyright   : Font data copyright Google 2011
Designer    : Google
Foundry URL : Googlecom
</metadata>
<defs>
<font id="RobotoBold" horiz-adv-x="1156">
<font-face units-per-em="2048" ascent="1536" descent="-512"/>
<missing-glyph horiz-adv-x="510"/>
<glyph unicode=" " horiz-adv-x="510"/>
<glyph unicode="	" horiz-adv-x="510"/>
<glyph unicode=" " horiz-adv-x="510"/>
<glyph unicode="!" horiz-adv-x="557" d="M134 0v256h292v-256h-292zM134 502v954h292v-954h-292z"/>
<glyph unicode="&quot;" horiz-adv-x="832" d="M141 932v524h231v-275l-102 -249h-129zM483 932v524h230v-275l-102 -249h-128z"/>
<glyph unicode="#" horiz-adv-x="1219" d="M48 410v169h256l51 290h-232v171h262l73 416h183l-73 -416h192l74 416h183l-73 -416h220v-171h-250l-51 -290h225v-169h-254l-72 -410h-184l72 410h-192l-71 -410h-184l72 410h-227zM488 579h191l51 290h-192z"/>
<glyph unicode="$" horiz-adv-x="1216" d="M108 435l3 6h284q0 -128 62.5 -182.5t162.5 -54.5q98 0 147 48t49 131q0 82 -47 131.5t-167 95.5q-226 76 -335 177t-109 284q0 169 109 276.5t296 126.5v214h159v-217q180 -25 282 -140.5t99 -300.5l-2 -5h-285q0 109 -49.5 167.5t-138.5 58.5q-94 0 -136 -49t-42 -132 q0 -77 44.5 -123t170.5 -99q222 -72 332 -176.5t110 -286.5q0 -174 -108.5 -278.5t-296.5 -123.5v-197h-159v197q-192 17 -315.5 127.5t-119.5 324.5z"/>
<glyph unicode="%" horiz-adv-x="1513" d="M95 1099v77q0 129 83.5 215t232.5 86q151 0 234 -85.5t83 -215.5v-77q0 -129 -83 -214t-232 -85q-150 0 -234 85t-84 214zM289 1099q0 -58 32 -97.5t92 -39.5q58 0 89.5 39.5t31.5 97.5v77q0 58 -32 98.5t-91 40.5t-90.5 -40.5t-31.5 -98.5v-77zM319 184l711 1138 l142 -75l-711 -1138zM791 280v77q0 128 84 214t233 86q150 0 233.5 -85.5t83.5 -214.5v-77q0 -130 -83 -215t-232 -85q-150 0 -234.5 85.5t-84.5 214.5zM985 280q0 -57 34.5 -97.5t90.5 -40.5q65 0 93 37.5t28 100.5v77q0 57 -32 97.5t-91 40.5q-60 0 -91.5 -40.5 t-31.5 -97.5v-77z"/>
<glyph unicode="&amp;" horiz-adv-x="1346" d="M61 392q0 121 63.5 206.5t194.5 182.5q-66 90 -98 164.5t-32 151.5q0 182 106 281t291 99q159 0 258.5 -98.5t99.5 -238.5q0 -104 -42.5 -180t-125.5 -141l-102 -72l270 -315q36 59 56 129t20 148h233q0 -142 -35.5 -260t-110.5 -209l201 -235l-2 -5h-324l-77 89 q-85 -55 -175 -82.5t-193 -27.5q-218 0 -347 114.5t-129 298.5zM353 407q0 -89 55 -146.5t144 -57.5q53 0 106 13.5t102 40.5l-295 342l-9 -7q-59 -48 -81 -94t-22 -91zM450 1100q0 -42 20 -86t61 -96l76 49q56 36 75.5 74t19.5 83q0 51 -33 89.5t-91 38.5q-60 0 -94 -44 t-34 -108z"/>
<glyph unicode="'" horiz-adv-x="442" d="M91 904v552h261v-269l-102 -283h-159z"/>
<glyph unicode="(" horiz-adv-x="711" d="M124 570v22q0 392 152 665.5t344 354.5h6l53 -146q-131 -98 -220 -316t-89 -556v-26q0 -339 89 -556.5t220 -318.5l-53 -143h-6q-192 81 -344 354t-152 666z"/>
<glyph unicode=")" horiz-adv-x="713" d="M31 -307q129 98 219 317t90 558v26q0 336 -91 556.5t-218 319.5l54 142h6q194 -80 352.5 -359t158.5 -661v-22q0 -383 -158.5 -661.5t-352.5 -358.5h-6z"/>
<glyph unicode="*" horiz-adv-x="857" d="M49 741l54 170l240 -79l2 249h176l7 -257l230 78l53 -171l-233 -79l138 -202l-144 -106l-149 208l-145 -199l-145 102l145 210z"/>
<glyph unicode="+" horiz-adv-x="1117" d="M56 560v252h362v394h276v-394h360v-252h-360v-414h-276v414h-362z"/>
<glyph unicode="," horiz-adv-x="528" d="M63 -302l70 324v228h284v-237l-159 -315h-195z"/>
<glyph unicode="-" horiz-adv-x="892" d="M146 510v225h589v-225h-589z"/>
<glyph unicode="." horiz-adv-x="596" d="M144 0v256h292v-256h-292z"/>
<glyph unicode="/" horiz-adv-x="825" d="M-14 -125l534 1581h284l-534 -1581h-284z"/>
<glyph unicode="0" horiz-adv-x="1175" d="M95 527v401q0 255 134.5 402t357.5 147q222 0 357.5 -147t135.5 -402v-401q0 -256 -134.5 -402t-356.5 -146q-224 0 -359 146t-135 402zM386 499q0 -143 53 -219.5t150 -76.5q95 0 147.5 76.5t52.5 219.5v459q0 140 -53.5 217t-148.5 77q-96 0 -148.5 -77t-52.5 -217 v-459z"/>
<glyph unicode="1" horiz-adv-x="1175" d="M204 1202v223l592 52v-1477h-291v1202h-301z"/>
<glyph unicode="2" horiz-adv-x="1175" d="M89 1014q-5 194 128 328.5t357 134.5t348 -114.5t124 -307.5q0 -131 -69.5 -239t-239.5 -299l-240 -288l2 -5h595v-224h-977v191l451 510q101 119 143.5 201.5t42.5 151.5q0 90 -45 144t-135 54q-95 0 -147 -69t-52 -175h-284z"/>
<glyph unicode="3" horiz-adv-x="1175" d="M91 390l2 6h284q0 -82 57.5 -137.5t148.5 -55.5q100 0 162 59t62 149q0 115 -58 170.5t-170 55.5h-161v219h161q104 0 154.5 54t50.5 152q0 82 -53 136t-148 54q-80 0 -134.5 -49t-54.5 -125h-282l-2 6q-6 171 132 282t341 111q226 0 359 -106.5t133 -305.5 q0 -100 -57.5 -183.5t-157.5 -131.5q114 -43 176 -130.5t62 -211.5q0 -200 -144.5 -314.5t-370.5 -114.5q-199 0 -348 108t-144 303z"/>
<glyph unicode="4" horiz-adv-x="1175" d="M56 491l604 965h295v-914h164v-226h-164v-316h-292v316h-593zM321 542h342v529l-6 1l-30 -65z"/>
<glyph unicode="5" horiz-adv-x="1175" d="M113 378l2 5l281 13q0 -91 55 -142t144 -51q104 0 151.5 68t47.5 194t-52 200.5t-154 74.5q-84 0 -128.5 -31t-63.5 -84l-257 17l84 814h812v-234h-573l-40 -340q41 30 103 49.5t135 21.5q203 3 314.5 -125.5t111.5 -360.5q0 -214 -121 -351t-370 -137q-201 0 -344 106.5 t-138 292.5z"/>
<glyph unicode="6" horiz-adv-x="1175" d="M95 562v305q0 277 162.5 443.5t411.5 166.5q85 0 157.5 -15.5t143.5 -45.5l-52 -214q-68 23 -122 34.5t-125 11.5q-128 0 -206.5 -98t-78.5 -273v-47q58 57 138.5 88.5t179.5 31.5q187 0 292 -132.5t105 -345.5q0 -219 -136 -356t-355 -137q-228 0 -371.5 156t-143.5 427 zM386 555q0 -168 61.5 -260t162.5 -92q91 0 145 76.5t54 192.5q0 120 -54.5 188.5t-147.5 68.5q-79 0 -134.5 -25.5t-86.5 -70.5v-78z"/>
<glyph unicode="7" horiz-adv-x="1175" d="M71 1231v225h1024v-225q-247 -289 -336 -520.5t-89 -530.5v-180h-292v180q0 304 111.5 554.5t324.5 496.5h-743z"/>
<glyph unicode="8" horiz-adv-x="1175" d="M82 406q0 118 72.5 209.5t196.5 140.5q-103 47 -161.5 130.5t-58.5 191.5q0 192 131 295.5t341 103.5q201 0 327 -103.5t126 -295.5q0 -108 -56 -191.5t-154 -130.5q119 -49 189 -140.5t70 -209.5q0 -202 -140.5 -314.5t-359.5 -112.5q-229 0 -376 112.5t-147 314.5z M375 420q0 -99 64.5 -158t165.5 -59q90 0 149 59t59 158q0 97 -60.5 159.5t-149.5 62.5q-98 0 -163 -62.5t-65 -159.5zM423 1065q0 -89 50 -143.5t132 -54.5q72 0 116 54t44 144q0 86 -45 136.5t-117 50.5q-82 0 -131 -49.5t-49 -137.5z"/>
<glyph unicode="9" horiz-adv-x="1175" d="M84 970q0 219 137 363t350 144q220 0 359 -148t139 -410v-392q0 -252 -151.5 -400t-385.5 -148q-76 0 -156.5 16.5t-151.5 46.5l49 211q63 -26 123 -38t136 -12q108 0 177 81.5t69 227.5v94q-49 -63 -116 -95t-144 -32q-203 0 -318.5 132t-115.5 359zM376 970 q0 -125 49 -201t142 -76q71 0 125 29t86 78v170q0 137 -56 209.5t-150 72.5q-88 0 -142 -81.5t-54 -200.5z"/>
<glyph unicode=":" horiz-adv-x="582" d="M144 0v256h292v-256h-292zM144 876v256h292v-256h-292z"/>
<glyph unicode=";" horiz-adv-x="562" d="M145 876v256h292v-256h-292zM114 -302l70 324v228h284v-237l-159 -315h-195z"/>
<glyph unicode="&lt;" horiz-adv-x="1043" d="M54 436v227l862 366v-272l-577 -207v-6l577 -203v-272z"/>
<glyph unicode="=" horiz-adv-x="1181" d="M136 332v229h896v-229h-896zM136 763v229h896v-229h-896z"/>
<glyph unicode="&gt;" horiz-adv-x="1058" d="M119 60v270l586 209v6l-586 206v269l872 -366v-227z"/>
<glyph unicode="?" horiz-adv-x="1021" d="M32 1081q-3 192 126.5 294t337.5 102q224 0 351.5 -113.5t127.5 -308.5q0 -127 -74.5 -235t-186.5 -181q-61 -47 -80 -94.5t-19 -130.5h-291q1 140 41.5 205t161.5 158q71 58 113.5 125t42.5 150q0 92 -48.5 144t-138.5 52q-74 0 -125.5 -44t-52.5 -129h-284zM323 0v250 h294v-250h-294z"/>
<glyph unicode="@" horiz-adv-x="1817" d="M66 478q18 427 255.5 683.5t625.5 256.5q387 0 593 -242.5t190 -662.5q-9 -218 -128 -376t-356 -158q-78 0 -135 44t-81 123q-44 -82 -109.5 -123t-153.5 -41q-141 0 -216.5 119t-55.5 315q25 254 143.5 407t287.5 153q116 0 186.5 -26t154.5 -80l-3 -4h5l-51 -573 q-7 -95 14 -130t57 -35q115 0 184.5 109t77.5 276q16 353 -136.5 551t-471.5 198q-303 0 -484 -213t-196 -571q-17 -355 146 -560t469 -205q85 0 175.5 20t155.5 50l38 -147q-67 -42 -170.5 -65.5t-202.5 -23.5q-396 0 -610.5 249t-197.5 682zM720 416q-10 -127 18.5 -192.5 t92.5 -65.5q56 0 101.5 26t81.5 96v6q0 3 1 7l44 496q-23 7 -46 11t-48 4q-111 0 -169 -96.5t-76 -291.5z"/>
<glyph unicode="A" horiz-adv-x="1303" d="M18 0l491 1456h299l489 -1456h-305l-99 314h-472l-98 -314h-305zM493 543h329l-161 513h-6z"/>
<glyph unicode="B" horiz-adv-x="1305" d="M134 0v1456h477q257 0 401 -100.5t144 -298.5q0 -100 -52 -179t-152 -119q136 -25 205 -118t69 -217q0 -209 -138 -316.5t-391 -107.5h-563zM426 224h271q116 0 177 50.5t61 149.5q0 106 -60 163t-181 57h-268v-420zM426 846h195q117 0 180 48t63 140q0 101 -63.5 149 t-189.5 48h-185v-385z"/>
<glyph unicode="C" horiz-adv-x="1303" d="M99 583v289q0 266 157 435.5t412 169.5q266 0 416 -130q146 -127 146 -354v-12l-2 -6h-284q0 140 -67.5 208.5t-208.5 68.5q-131 0 -204.5 -105.5t-73.5 -272.5v-291q0 -168 77.5 -274t215.5 -106q131 0 195.5 68.5t64.5 210.5h283l2 -6v-12q0 -224 -142 -353 q-146 -132 -403 -132q-262 0 -423 168.5t-161 435.5z"/>
<glyph unicode="D" horiz-adv-x="1355" d="M134 0v1456h508q267 0 440 -170.5t173 -437.5v-241q0 -268 -173 -437.5t-440 -169.5h-508zM426 224h216q144 0 232 107.5t88 275.5v243q0 167 -88 274t-232 107h-216v-1007z"/>
<glyph unicode="E" horiz-adv-x="1139" d="M134 0v1456h932v-225h-640v-366h540v-225h-540v-416h642v-224h-934z"/>
<glyph unicode="F" horiz-adv-x="1139" d="M134 0v1456h953v-225h-661v-401h559v-225h-559v-605h-292z"/>
<glyph unicode="G" horiz-adv-x="1364" d="M99 576v304q0 264 163 430.5t419 166.5q267 0 409 -127q137 -122 137 -323v-14l-2 -6h-275q0 116 -67 180.5t-195 64.5q-134 0 -216 -103.5t-82 -266.5v-306q0 -165 84 -269t225 -104q104 0 164.5 21t93.5 53v282h-280v202h573v-562q-68 -89 -203 -154.5t-348 -65.5 q-264 0 -432 166t-168 431z"/>
<glyph unicode="H" horiz-adv-x="1445" d="M134 0v1456h292v-626h593v626h292v-1456h-292v605h-593v-605h-292z"/>
<glyph unicode="I" horiz-adv-x="601" d="M154 0v1456h292v-1456h-292z"/>
<glyph unicode="J" horiz-adv-x="1137" d="M36 424l2 6h284q0 -116 57 -171.5t153 -55.5q80 0 131 66.5t51 181.5v1005h291v-1005q0 -216 -132.5 -344t-340.5 -128q-231 0 -366 114q-130 110 -130 316v15z"/>
<glyph unicode="K" horiz-adv-x="1305" d="M134 0v1456h292v-595h82l399 595h361l-504 -677l543 -779h-372l-402 608h-107v-608h-292z"/>
<glyph unicode="L" horiz-adv-x="1138" d="M134 0v1456h292v-1232h652v-224h-944z"/>
<glyph unicode="M" horiz-adv-x="1782" d="M134 0v1456h383l370 -1073h6l374 1073h381v-1456h-292v994l-6 1l-360 -995h-198l-360 997l-6 -1v-996h-292z"/>
<glyph unicode="N" horiz-adv-x="1445" d="M134 0v1456h292l587 -981l6 1v980h292v-1456h-292l-587 982l-6 -1v-981h-292z"/>
<glyph unicode="O" horiz-adv-x="1409" d="M97 597v262q0 267 167.5 442.5t436.5 175.5q271 0 441 -175.5t170 -442.5v-262q0 -269 -169 -443.5t-440 -174.5q-270 0 -438 175t-168 443zM388 597q0 -173 83 -282t232 -109q150 0 234 109t84 282v264q0 170 -85 279t-235 109q-148 0 -230.5 -109t-82.5 -279v-264z"/>
<glyph unicode="P" horiz-adv-x="1305" d="M134 0v1456h557q251 0 395 -128t144 -337t-144 -336t-395 -127h-265v-528h-292zM426 753h265q122 0 185 66.5t63 169.5q0 105 -62.5 173.5t-185.5 68.5h-265v-478z"/>
<glyph unicode="Q" horiz-adv-x="1441" d="M97 597v262q0 267 167.5 442.5t436.5 175.5q271 0 441 -175.5t170 -442.5v-262q0 -110 -30.5 -207t-86.5 -175l217 -217l-191 -156l-213 210q-67 -36 -143.5 -54.5t-161.5 -18.5q-270 0 -438 175t-168 443zM388 597q0 -173 83 -282t232 -109q150 0 234 109t84 282v264 q0 170 -85 279t-235 109q-148 0 -230.5 -109t-82.5 -279v-264z"/>
<glyph unicode="R" horiz-adv-x="1305" d="M134 0v1456h504q249 0 389.5 -113.5t140.5 -316.5q0 -112 -59.5 -193.5t-173.5 -131.5q129 -38 185.5 -127t56.5 -220v-107q0 -61 16.5 -127.5t56.5 -98.5v-21h-301q-40 32 -51.5 106t-11.5 143v103q0 109 -59.5 169.5t-168.5 60.5h-232v-582h-292zM426 807h207 q123 0 183 52t60 154q0 100 -60.5 159t-177.5 59h-212v-424z"/>
<glyph unicode="S" horiz-adv-x="1266" d="M86 445l2 6h283q0 -129 76 -190t206 -61q117 0 178.5 49t61.5 131q0 84 -58.5 135t-205.5 96q-252 76 -382.5 179t-130.5 281q0 179 147 292.5t375 113.5q242 0 390 -122q143 -118 142 -307v-13l-2 -6h-283q0 109 -66 167.5t-185 58.5q-108 0 -167 -52t-59 -133 q0 -74 64 -121.5t221 -100.5q240 -68 366 -177.5t126 -288.5q0 -187 -146 -295t-386 -108q-235 0 -403 117q-164 114 -164 336v13z"/>
<glyph unicode="T" horiz-adv-x="1175" d="M31 1231v225h1118v-225h-416v-1231h-292v1231h-410z"/>
<glyph unicode="U" horiz-adv-x="1407" d="M120 503v953h293v-953q0 -146 78 -223t211 -77q135 0 214 77t79 223v953h293v-953q0 -246 -163 -385t-423 -139q-259 0 -420.5 139t-161.5 385z"/>
<glyph unicode="V" horiz-adv-x="1303" d="M7 1456h308l315 -1061l18 -80h6l17 77l317 1064h308l-495 -1456h-300z"/>
<glyph unicode="W" horiz-adv-x="1804" d="M20 1456h301l194 -987h6l262 987h236l264 -988h6l193 988h301l-340 -1456h-271l-268 959h-6l-267 -959h-271z"/>
<glyph unicode="X" horiz-adv-x="1303" d="M31 0l443 734l-432 722h338l269 -516l273 516h340l-432 -722l457 -734h-353l-281 525l-281 -525h-341z"/>
<glyph unicode="Y" horiz-adv-x="1303" d="M10 1456h320l318 -671h6l318 671h320l-499 -944v-512h-292v527z"/>
<glyph unicode="Z" horiz-adv-x="1163" d="M77 0v152l648 1079h-647v225h994v-146l-651 -1086h668v-224h-1012z"/>
<glyph unicode="[" horiz-adv-x="570" d="M119 -336v2027h434v-216h-141v-1595h141v-216h-434z"/>
<glyph unicode="\" horiz-adv-x="863" d="M2 1456h289l608 -1581h-289z"/>
<glyph unicode="]" horiz-adv-x="570" d="M13 -120h142v1595h-142v216h434v-2027h-434v216z"/>
<glyph unicode="^" horiz-adv-x="896" d="M44 729l299 727h212l299 -727h-231l-165 413l-8 34h-6l-7 -34l-162 -413h-231z"/>
<glyph unicode="_" horiz-adv-x="914" d="M1 0h910v-219h-910v219z"/>
<glyph unicode="`" horiz-adv-x="678" d="M54 1512l2 6h325l196 -266h-251z"/>
<glyph unicode="a" horiz-adv-x="1100" d="M57 305q0 159 122.5 246.5t357.5 87.5h164v86q0 78 -41 121t-122 43q-71 0 -109.5 -34.5t-38.5 -94.5h-281l-2 6v14q-1 128 119 222q126 100 331 100q195 0 315.5 -98t120.5 -281v-447q0 -76 11.5 -143t36.5 -133h-291q-16 37 -27.5 78t-16.5 84q-45 -79 -119 -131 t-176 -52q-170 0 -262 87.5t-92 238.5zM349 315q0 -55 35.5 -87.5t98.5 -32.5q76 0 136 38t82 88v153h-164q-93 0 -140.5 -46t-47.5 -113z"/>
<glyph unicode="b" d="M112 0v1560h291v-593q47 65 112.5 100t150.5 35q206 0 314 -155.5t108 -414.5v-21q0 -242 -108 -387t-312 -145q-95 0 -165.5 40t-119.5 117l-24 -136h-247zM403 307q27 -49 74.5 -75t116.5 -26q113 0 158 79.5t45 225.5v21q0 158 -46.5 250.5t-158.5 92.5 q-68 0 -115 -28.5t-74 -81.5v-458z"/>
<glyph unicode="c" horiz-adv-x="1056" d="M62 525v30q0 238 130.5 392.5t369.5 154.5q198 0 319 -114q117 -110 117 -288v-12l-2 -6h-266q0 84 -44.5 139.5t-123.5 55.5q-113 0 -160.5 -90.5t-47.5 -231.5v-30q0 -144 47.5 -233t162.5 -89q76 0 121 45.5t45 121.5h266l2 -6v-10q0 -156 -122 -264 q-126 -110 -312 -111q-240 0 -371 153.5t-131 392.5z"/>
<glyph unicode="d" d="M67 511v21q0 256 110.5 413t311.5 157q81 0 146 -35t114 -100v593h293v-1560h-249l-25 133q-51 -75 -121 -114.5t-160 -39.5q-199 0 -309.5 146t-110.5 386zM358 511q0 -142 48 -223.5t156 -81.5q63 0 110 25.5t77 74.5v461q-30 51 -76.5 79.5t-108.5 28.5 q-107 0 -156.5 -95t-49.5 -248v-21z"/>
<glyph unicode="e" horiz-adv-x="1071" d="M67 510v40q0 243 132 398q131 154 360 154h3q218 0 334.5 -133.5t116.5 -359.5v-151h-645l-3 -6q7 -111 67.5 -180t179.5 -69q98 0 166.5 20t141.5 61l79 -180q-65 -53 -176 -89t-242 -36q-242 0 -378 148.5t-136 382.5zM369 656l2 -5h356v22q0 95 -39 149.5t-126 54.5 q-88 0 -135.5 -60.5t-57.5 -160.5z"/>
<glyph unicode="f" horiz-adv-x="714" d="M27 877v205h161v120q0 182 105 280.5t295 98.5q37 0 75.5 -5.5t84.5 -15.5l-25 -217q-24 4 -46.5 7t-52.5 3q-71 0 -107.5 -39t-36.5 -112v-120h208v-205h-208v-877h-292v877h-161z"/>
<glyph unicode="g" d="M69 511v21q0 256 111 413t312 157q91 0 160 -41t118 -117l23 138h251v-1077q0 -211 -138 -326.5t-385 -115.5q-82 0 -174 22.5t-170 61.5l49 218q67 -32 138.5 -48.5t154.5 -16.5q120 0 176.5 50t56.5 156v98q-48 -61 -113 -93t-149 -32q-199 0 -310 146t-111 386z M361 511q0 -142 47.5 -223.5t155.5 -81.5q67 0 113.5 24.5t74.5 71.5v469q-28 50 -74.5 77t-111.5 27q-107 0 -156 -95t-49 -248v-21z"/>
<glyph unicode="h" d="M105 0v1560h292v-615q51 74 125 115.5t164 41.5q169 0 265.5 -112.5t96.5 -347.5v-642h-292v644q0 126 -40.5 178.5t-121.5 52.5q-67 0 -116.5 -21.5t-80.5 -61.5v-792h-292z"/>
<glyph unicode="i" horiz-adv-x="547" d="M127 0v1082h292v-1082h-292zM127 1341v219h292v-219h-292z"/>
<glyph unicode="j" horiz-adv-x="543" d="M-98 -420l14 223q23 -6 46 -9t49 -3q59 0 91 41.5t32 127.5v1122h293v-1122q0 -190 -101 -293.5t-281 -103.5q-40 0 -73 4t-70 13zM128 1343v217h293v-217h-293z"/>
<glyph unicode="k" horiz-adv-x="1097" d="M112 0v1560h292v-885h65l259 407h338l-352 -493l400 -589h-336l-300 453h-74v-453h-292z"/>
<glyph unicode="l" horiz-adv-x="547" d="M127 0v1560h292v-1560h-292z"/>
<glyph unicode="m" horiz-adv-x="1772" d="M112 0v1082h271l12 -143q52 78 130.5 120.5t181.5 42.5q104 0 178 -46t112 -139q50 87 130 136t188 49q160 0 252.5 -113.5t92.5 -346.5v-642h-292v643q0 130 -40 181t-119 51q-62 0 -107.5 -27.5t-72.5 -76.5q0 -19 1 -32.5t1 -27.5v-711h-291v643q0 127 -40 179.5 t-120 52.5q-59 0 -103.5 -22.5t-73.5 -63.5v-789h-291z"/>
<glyph unicode="n" d="M107 0v1082h272l13 -155q54 83 133 129t177 46q164 0 256 -105.5t92 -333.5v-663h-293v662q0 116 -40.5 164.5t-121.5 48.5q-65 0 -114.5 -24.5t-81.5 -67.5v-783h-292z"/>
<glyph unicode="o" d="M67 530v21q0 242 135 396.5t374 154.5q240 0 376 -154t136 -397v-21q0 -244 -135.5 -397.5t-374.5 -153.5q-240 0 -375.5 153.5t-135.5 397.5zM358 530q0 -148 52 -237.5t168 -89.5q113 0 165.5 90t52.5 237v21q0 144 -53 235t-167 91q-113 0 -165.5 -91.5t-52.5 -234.5 v-21z"/>
<glyph unicode="p" d="M112 -416v1498h263l17 -128q48 71 115.5 109.5t157.5 38.5q201 0 312 -157t111 -413v-21q0 -240 -111 -386t-310 -146q-85 0 -151 31.5t-113 92.5v-519h-291zM403 297q27 -46 73.5 -70t114.5 -24q106 0 155.5 83t49.5 225v21q0 153 -51 248t-156 95q-66 0 -112.5 -27 t-73.5 -77v-474z"/>
<glyph unicode="q" d="M67 511v21q0 256 110.5 413t311.5 157q90 0 158 -39.5t117 -113.5l27 133h248v-1498h-292v517q-48 -60 -112.5 -91t-147.5 -31q-199 0 -309.5 146t-110.5 386zM358 511q0 -142 48 -225t156 -83q64 0 110 24t75 70v480q-29 48 -74.5 74t-108.5 26q-107 0 -156.5 -96 t-49.5 -249v-21z"/>
<glyph unicode="r" horiz-adv-x="721" d="M112 0v1082h271l13 -160q38 85 98.5 132.5t139.5 47.5q22 0 40.5 -3.5t37.5 -8.5l-31 -259l-107 3q-65 0 -107 -27t-64 -76v-731h-291z"/>
<glyph unicode="s" horiz-adv-x="1056" d="M64 338l2 6h267q3 -87 57 -126t141 -39q81 0 123.5 32.5t42.5 88.5q0 48 -46.5 82.5t-172.5 60.5q-190 38 -288.5 115t-98.5 209q0 139 118 237t314 98q205 0 329 -98q119 -94 118 -233v-11l-2 -6h-282q0 65 -42 106t-121 41q-70 0 -111 -35t-41 -86q0 -50 42.5 -81.5 t172.5 -56.5q199 -40 296.5 -117.5t97.5 -213.5q0 -146 -125 -239t-330 -93q-215 -1 -341 109q-120 105 -120 237v13z"/>
<glyph unicode="t" horiz-adv-x="713" d="M13 877v205h158v265h291v-265h183v-205h-183v-551q0 -63 26.5 -90t69.5 -27q23 0 40 2.5t39 8.5l24 -211q-44 -15 -85.5 -22.5t-90.5 -7.5q-151 0 -232.5 83t-81.5 263v552h-158z"/>
<glyph unicode="u" d="M105 455v627h291v-629q0 -142 38.5 -194.5t119.5 -52.5q70 0 120 22.5t82 66.5v787h292v-1082h-242l-31 160q-50 -87 -127 -134t-179 -47q-171 0 -267.5 116t-96.5 360z"/>
<glyph unicode="v" horiz-adv-x="1046" d="M16 1082h305l182 -679l19 -100h6l20 100l178 679h305l-368 -1082h-279z"/>
<glyph unicode="w" horiz-adv-x="1507" d="M29 1082h284l133 -677h6l202 677h195l204 -680h6l131 680h284l-275 -1082h-244l-201 624h-6l-201 -624h-243z"/>
<glyph unicode="x" horiz-adv-x="1046" d="M19 0l337 547l-327 535h328l162 -344h6l166 344h330l-326 -535l337 -547h-329l-177 359l-177 -359h-330z"/>
<glyph unicode="y" horiz-adv-x="1046" d="M5 1082h314l183 -628l12 -60h6l207 688h314l-439 -1244q-46 -116 -125 -195.5t-237 -79.5q-37 0 -68.5 6t-76.5 17l34 213q13 -2 28 -4t27 -2q72 0 111 35.5t60 88.5l34 84z"/>
<glyph unicode="z" horiz-adv-x="1046" d="M75 0v172l515 684h-499v226h866v-167l-519 -691h536v-224h-899z"/>
<glyph unicode="{" horiz-adv-x="676" d="M48 518v201q90 0 133.5 54.5t43.5 155.5v203q0 171 82.5 290.5t277.5 174.5l56 -157q-85 -31 -120 -110.5t-35 -197.5v-203q0 -104 -44.5 -184.5t-134.5 -125.5q90 -47 134.5 -127.5t44.5 -182.5v-203q0 -118 35 -197.5t120 -110.5l-56 -158q-195 55 -277.5 175 t-82.5 291v203q0 99 -43.5 154t-133.5 55z"/>
<glyph unicode="|" horiz-adv-x="519" d="M143 -270v1726h231v-1726h-231z"/>
<glyph unicode="}" horiz-adv-x="676" d="M34 -202q85 31 120 110.5t35 197.5v203q0 104 46 184t140 125q-94 45 -140 125.5t-46 185.5v203q0 118 -35 197.5t-120 110.5l56 157q194 -55 277 -174.5t83 -290.5v-203q0 -101 43 -155.5t135 -54.5v-201q-92 0 -135 -55t-43 -154v-203q0 -171 -83 -291t-277 -175z"/>
<glyph unicode="~" horiz-adv-x="1327" d="M105 448q0 162 86.5 269.5t223.5 107.5q83 0 158.5 -33.5t151.5 -99.5q49 -45 86.5 -64.5t81.5 -19.5q50 0 87 52t37 125l203 -27q0 -161 -88.5 -270.5t-223.5 -109.5q-85 0 -157 31.5t-150 101.5q-52 44 -89.5 64t-81.5 20q-52 0 -87.5 -51t-35.5 -122z"/>
<glyph unicode="¡" horiz-adv-x="580" d="M142 -374v953h292v-953h-292zM142 825v257h292v-257h-292z"/>
<glyph unicode="¢" horiz-adv-x="1181" d="M62 525v30q0 221 113.5 371.5t324.5 172.5v219h200v-233q140 -36 222 -142.5t82 -260.5h-274q0 84 -44.5 139.5t-123.5 55.5q-113 0 -160.5 -90.5t-47.5 -231.5v-30q0 -144 47.5 -233t162.5 -89q76 0 121 45.5t45 121.5h267l3 -5q2 -131 -81 -231.5t-219 -136.5v-242 h-200v228q-211 21 -324.5 170.5t-113.5 371.5z"/>
<glyph unicode="£" horiz-adv-x="1216" d="M92 588v225h155l-8 214q0 210 120.5 330t322.5 120q215 0 333.5 -111.5t114.5 -294.5l-2 -6h-284q0 96 -46 141.5t-117 45.5q-70 0 -110 -58.5t-40 -166.5l10 -214h355v-225h-345l4 -85q0 -78 -30 -150t-86 -129h713v-224h-996v224h10q47 12 70.5 95t23.5 171l-4 98h-164 z"/>
<glyph unicode="¤" horiz-adv-x="1417" d="M80 118l135 137q-49 76 -74.5 165.5t-25.5 187.5q0 101 28 194t81 171l-144 147l141 144l142 -145q74 55 162.5 85t185.5 30q96 0 185 -30.5t164 -86.5l144 148l142 -145l-148 -151q51 -78 79 -169.5t28 -191.5q0 -97 -25.5 -185.5t-72.5 -163.5l139 -141l-142 -145 l-132 134q-77 -62 -169 -94.5t-192 -32.5q-101 0 -193.5 32.5t-167.5 93.5l-129 -132zM301 608q0 -185 119 -312t291 -127q170 0 289.5 127.5t119.5 311.5q0 183 -119.5 310t-289.5 127q-172 0 -291 -127t-119 -310z"/>
<glyph unicode="¥" horiz-adv-x="1253" d="M22 1456h321l280 -608h6l281 608h320l-382 -714h244v-165h-324v-125h324v-164h-324v-288h-292v288h-339v164h339v125h-339v165h267z"/>
<glyph unicode="¦" horiz-adv-x="517" d="M127 -270v795h262v-795h-262zM127 698v758h262v-758h-262z"/>
<glyph unicode="§" horiz-adv-x="1287" d="M94 536q0 89 42 158t121 113q-69 50 -103 120.5t-34 168.5q0 172 141.5 276.5t378.5 104.5q243 0 380.5 -111t132.5 -311l-2 -6h-283q0 88 -60 145.5t-168 57.5q-114 0 -171 -43.5t-57 -110.5q0 -75 55.5 -113.5t232.5 -86.5q247 -64 363.5 -157.5t116.5 -265.5 q0 -91 -42 -159t-121 -111q68 -51 102.5 -121t34.5 -168q0 -177 -140 -277t-377 -100q-232 0 -387.5 99.5t-150.5 317.5l2 6l283 1q0 -106 72.5 -152t180.5 -46q107 0 166.5 41.5t59.5 108.5t-61 107.5t-230 90.5q-244 64 -361 157.5t-117 265.5zM385 562q0 -80 55.5 -121.5 t232.5 -93.5q34 -10 68.5 -20t69.5 -21q39 22 60.5 59t21.5 85q0 71 -62 116t-232 97q-40 10 -74 21t-65 22q-38 -22 -56.5 -59t-18.5 -85z"/>
<glyph unicode="¨" horiz-adv-x="1090" d="M156 1252v204h266v-204h-266zM656 1252v204h266v-204h-266z"/>
<glyph unicode="©" horiz-adv-x="1606" d="M86 729q0 315 207 531t503 216q295 0 502.5 -216t207.5 -531q0 -316 -208 -533t-502 -217q-296 0 -503 217t-207 533zM208 729q0 -264 171.5 -444.5t416.5 -180.5q244 0 415.5 180.5t171.5 444.5q0 263 -171.5 442.5t-415.5 179.5q-246 0 -417 -179.5t-171 -442.5z M433 669v119q0 173 94.5 280t254.5 107q157 0 245.5 -79.5t84.5 -228.5l-2 -6h-148q0 94 -45 136.5t-135 42.5q-94 0 -144 -69t-50 -182v-120q0 -115 50 -183.5t144 -68.5q90 0 134.5 41.5t44.5 137.5h148l2 -6q4 -151 -84 -229.5t-245 -78.5q-160 0 -254.5 106t-94.5 281z "/>
<glyph unicode="ª" horiz-adv-x="909" d="M112 920q0 111 84.5 171t246.5 60h137v51q0 62 -29.5 94.5t-86.5 32.5q-66 0 -102 -26t-36 -73l-165 13l-1 6q-6 98 79 163t225 65q134 0 212.5 -71t78.5 -205v-314q0 -51 6 -95t20 -86h-177q-8 21 -13 44.5t-8 49.5q-33 -47 -88.5 -77.5t-133.5 -30.5q-119 0 -184 61 t-65 167zM287 924q0 -43 29 -65.5t88 -22.5q51 0 105 30t71 65v103h-136q-74 0 -115.5 -32t-41.5 -78z"/>
<glyph unicode="«" horiz-adv-x="1025" d="M97 506v19l280 390h187l-240 -400l240 -399h-187zM432 506v19l280 390h187l-240 -400l240 -399h-187z"/>
<glyph unicode="¬" horiz-adv-x="1129" d="M126 634v171h835v-431h-200v260h-635z"/>
<glyph unicode="­" horiz-adv-x="892" d="M146 510v225h589v-225h-589z"/>
<glyph unicode="®" horiz-adv-x="1606" d="M86 729q0 315 207 531t503 216q295 0 502.5 -216t207.5 -531q0 -316 -208 -533t-502 -217q-296 0 -503 217t-207 533zM208 729q0 -264 171.5 -444.5t416.5 -180.5q244 0 415.5 180.5t171.5 444.5q0 263 -171.5 442.5t-415.5 179.5q-246 0 -417 -179.5t-171 -442.5z M501 316v850h281q151 0 238 -68t87 -194q0 -58 -29 -101.5t-85 -74.5q58 -30 84.5 -84.5t26.5 -128.5v-56q0 -41 3.5 -73.5t13.5 -53.5v-16h-155q-9 21 -11 61.5t-2 82.5v54q0 71 -33.5 105t-109.5 34h-158v-337h-151zM652 787h135q71 0 120.5 30t49.5 86q0 72 -39 101 t-136 29h-130v-246z"/>
<glyph unicode="¯" horiz-adv-x="1028" d="M148 1292v165h731v-165h-731z"/>
<glyph unicode="ˉ" horiz-adv-x="1028" d="M148 1292v165h731v-165h-731z"/>
<glyph unicode="°" horiz-adv-x="796" d="M126 1203q0 112 80.5 193t192.5 81q110 0 189 -81t79 -193q0 -113 -79 -192t-189 -79q-113 0 -193 79t-80 192zM273 1203q0 -53 37 -88.5t89 -35.5q51 0 86 35t35 89t-35 91t-86 37q-52 0 -89 -37t-37 -91z"/>
<glyph unicode="±" horiz-adv-x="1101" d="M90 715v232h333v363h256v-363h327v-232h-327v-383h-256v383h-333zM114 -43v228h834v-228h-834z"/>
<glyph unicode="²" horiz-adv-x="860" d="M108 1223q-6 106 82.5 181t236.5 75q144 0 223 -65t79 -183q0 -82 -53.5 -144.5t-178.5 -165.5l-109 -93l2 -6h346v-155h-622v155l309 252q60 50 77.5 83.5t17.5 74.5q0 39 -23.5 65.5t-72.5 26.5q-55 0 -83 -30t-28 -77h-201z"/>
<glyph unicode="³" horiz-adv-x="856" d="M95 893l2 6h201q0 -42 31.5 -65.5t91.5 -23.5q56 0 90 24t34 68q0 50 -35 77t-102 27h-111v133h111q62 0 92 24.5t30 70.5q0 38 -28.5 63.5t-83.5 25.5q-51 0 -79.5 -22t-28.5 -53h-200l-2 6q-6 101 82 162.5t222 61.5q152 0 240.5 -59.5t88.5 -169.5q0 -55 -35.5 -100.5 t-96.5 -70.5q70 -24 107.5 -71.5t37.5 -115.5q0 -112 -89.5 -174t-241.5 -62q-146 0 -240 62.5t-88 175.5z"/>
<glyph unicode="´" horiz-adv-x="727" d="M115 1252l199 266h325l2 -6l-277 -260h-249z"/>
<glyph unicode="µ" horiz-adv-x="1264" d="M139 -416v1498h291v-620q0 -149 45 -202.5t135 -53.5q75 0 125 27.5t78 79.5v769h292v-1082h-272l-6 67q-44 -43 -100.5 -65.5t-123.5 -22.5q-51 0 -94.5 10.5t-78.5 33.5v-439h-291z"/>
<glyph unicode="¶" horiz-adv-x="1078" d="M61 988q0 207 129.5 337.5t362.5 130.5h375v-1456h-292v520h-83q-233 0 -362.5 129.5t-129.5 338.5z"/>
<glyph unicode="·" horiz-adv-x="619" d="M159 568v260h292v-260h-292z"/>
<glyph unicode="¸" horiz-adv-x="549" d="M97 -136l31 142h219l-11 -57q64 -11 107 -52t43 -121q0 -107 -91.5 -171t-259.5 -64l-7 161q51 0 81 20.5t30 62.5q0 41 -32 57.5t-110 21.5z"/>
<glyph unicode="¹" horiz-adv-x="573" d="M78 1295v159l338 23v-812h-211v630h-127z"/>
<glyph unicode="º" horiz-adv-x="937" d="M118 1025v117q0 148 94 241.5t252 93.5t252.5 -93.5t94.5 -241.5v-117q0 -149 -94 -241.5t-251 -92.5q-159 0 -253.5 92.5t-94.5 241.5zM293 1025q0 -85 44 -136.5t129 -51.5q82 0 126 51.5t44 136.5v117q0 83 -44.5 135t-127.5 52q-84 0 -127.5 -52t-43.5 -135v-117z "/>
<glyph unicode="»" horiz-adv-x="1025" d="M102 151l239 399l-239 400h188l280 -390v-19l-280 -390h-188zM448 151l239 399l-239 400h188l280 -390v-19l-280 -390h-188z"/>
<glyph unicode="¼" horiz-adv-x="1493" d="M167 1294v159l338 23v-812h-211v630h-127zM309 192l711 1138l142 -75l-711 -1138zM762 265l424 536h211v-505h101v-157h-101v-139h-211v139h-410zM978 296h208v257l-6 2l-13 -20z"/>
<glyph unicode="½" horiz-adv-x="1553" d="M322 192l711 1138l142 -75l-711 -1138zM167 1294v159l338 23v-812h-211v630h-127zM919 556q-6 106 82.5 181t236.5 75q144 0 223 -65t79 -183q0 -82 -53.5 -144.5t-178.5 -165.5l-109 -93l2 -6h346v-155h-622v155l309 252q60 50 77.5 83.5t17.5 74.5q0 39 -23.5 65.5 t-72.5 26.5q-55 0 -83 -30t-28 -77h-201z"/>
<glyph unicode="¾" horiz-adv-x="1717" d="M492 192l711 1138l142 -75l-711 -1138zM951 265l424 536h211v-505h101v-157h-101v-139h-211v139h-410zM1167 296h208v257l-6 2l-13 -20zM111 894l2 6h201q0 -42 31.5 -65.5t91.5 -23.5q56 0 90 24t34 68q0 50 -35 77t-102 27h-111v133h111q62 0 92 24.5t30 70.5 q0 38 -28.5 63.5t-83.5 25.5q-51 0 -79.5 -22t-28.5 -53h-200l-2 6q-6 101 82 162.5t222 61.5q152 0 240.5 -59.5t88.5 -169.5q0 -55 -35.5 -100.5t-96.5 -70.5q70 -24 107.5 -71.5t37.5 -115.5q0 -112 -89.5 -174t-241.5 -62q-146 0 -240 62.5t-88 175.5z"/>
<glyph unicode="¿" horiz-adv-x="1037" d="M75 27q0 125 74 233t187 183q60 45 79.5 92.5t19.5 132.5h291q-2 -141 -42.5 -206.5t-159.5 -157.5q-72 -58 -114.5 -125.5t-42.5 -149.5q0 -90 48.5 -142t139.5 -52q73 0 124 43t54 128h283l2 -6q2 -191 -127.5 -292.5t-335.5 -101.5q-226 0 -353 113t-127 308zM433 831 v251h294v-251h-294z"/>
<glyph unicode="À" horiz-adv-x="1303" d="M18 0l491 1456h299l489 -1456h-305l-99 314h-472l-98 -314h-305zM493 543h329l-161 513h-6zM270 1860l2 6h325l196 -266h-251z"/>
<glyph unicode="Á" horiz-adv-x="1303" d="M18 0l491 1456h299l489 -1456h-305l-99 314h-472l-98 -314h-305zM493 543h329l-161 513h-6zM512 1600l199 266h325l2 -6l-277 -260h-249z"/>
<glyph unicode="Â" horiz-adv-x="1303" d="M18 0l491 1456h299l489 -1456h-305l-99 314h-472l-98 -314h-305zM493 543h329l-161 513h-6zM287 1592v26l282 240h169l287 -243v-23h-232l-140 133l-139 -133h-227z"/>
<glyph unicode="Ã" horiz-adv-x="1303" d="M18 0l491 1456h299l489 -1456h-305l-99 314h-472l-98 -314h-305zM493 543h329l-161 513h-6zM278 1644q0 94 59.5 163.5t149.5 69.5q56 0 152 -43.5t148 -43.5q34 0 60 32t26 79l154 -45q0 -96 -59.5 -163.5t-150.5 -67.5q-70 0 -158.5 43.5t-140.5 43.5q-36 0 -60 -32.5 t-24 -77.5z"/>
<glyph unicode="Ä" horiz-adv-x="1303" d="M18 0l491 1456h299l489 -1456h-305l-99 314h-472l-98 -314h-305zM493 543h329l-161 513h-6zM270 1601v204h266v-204h-266zM770 1601v204h266v-204h-266z"/>
<glyph unicode="Å" horiz-adv-x="1303" d="M18 0l491 1456h299l489 -1456h-305l-99 314h-472l-98 -314h-305zM493 543h329l-161 513h-6zM466 1746q0 73 54 122.5t134 49.5q78 0 131.5 -49.5t53.5 -122.5q0 -74 -53.5 -121.5t-131.5 -47.5q-80 0 -134 47.5t-54 121.5zM582 1746q0 -31 20.5 -51.5t51.5 -20.5 q30 0 49.5 20t19.5 52t-19.5 52.5t-49.5 20.5q-31 0 -51.5 -20.5t-20.5 -52.5z"/>
<glyph unicode="Æ" horiz-adv-x="1945" d="M12 0l784 1456h1016v-228h-596l16 -366h499v-227h-490l17 -408h616v-227h-898l-14 335h-440l-168 -335h-342zM642 575h310l-23 559l-6 1z"/>
<glyph unicode="Ç" horiz-adv-x="1303" d="M99 583v289q0 266 157 435.5t412 169.5q266 0 416 -130q146 -127 146 -354v-12l-2 -6h-284q0 140 -67.5 208.5t-208.5 68.5q-131 0 -204.5 -105.5t-73.5 -272.5v-291q0 -168 77.5 -274t215.5 -106q131 0 195.5 68.5t64.5 210.5h283l2 -6v-12q0 -224 -142 -353 q-146 -132 -403 -132q-262 0 -423 168.5t-161 435.5zM530 -138l31 142h219l-11 -57q64 -11 107 -52t43 -121q0 -107 -91.5 -171t-259.5 -64l-7 161q51 0 81 20.5t30 62.5q0 41 -32 57.5t-110 21.5z"/>
<glyph unicode="È" horiz-adv-x="1139" d="M134 0v1456h932v-225h-640v-366h540v-225h-540v-416h642v-224h-934zM218 1860l2 6h325l196 -266h-251z"/>
<glyph unicode="É" horiz-adv-x="1139" d="M134 0v1456h932v-225h-640v-366h540v-225h-540v-416h642v-224h-934zM460 1600l199 266h325l2 -6l-277 -260h-249z"/>
<glyph unicode="Ê" horiz-adv-x="1139" d="M134 0v1456h932v-225h-640v-366h540v-225h-540v-416h642v-224h-934zM235 1592v26l282 240h169l287 -243v-23h-232l-140 133l-139 -133h-227z"/>
<glyph unicode="Ë" horiz-adv-x="1139" d="M134 0v1456h932v-225h-640v-366h540v-225h-540v-416h642v-224h-934zM218 1601v204h266v-204h-266zM718 1601v204h266v-204h-266z"/>
<glyph unicode="Ì" horiz-adv-x="601" d="M154 0v1456h292v-1456h-292zM-82 1860l2 6h325l196 -266h-251z"/>
<glyph unicode="Í" horiz-adv-x="601" d="M154 0v1456h292v-1456h-292zM159 1600l199 266h325l2 -6l-277 -260h-249z"/>
<glyph unicode="Î" horiz-adv-x="601" d="M154 0v1456h292v-1456h-292zM-65 1592v26l282 240h169l287 -243v-23h-232l-140 133l-139 -133h-227z"/>
<glyph unicode="Ï" horiz-adv-x="601" d="M154 0v1456h292v-1456h-292zM-82 1601v204h266v-204h-266zM418 1601v204h266v-204h-266z"/>
<glyph unicode="Ð" horiz-adv-x="1355" d="M-2 652v181h136v623h508q267 0 440 -170.5t173 -437.5v-241q0 -268 -173 -437.5t-440 -169.5h-508v652h-136zM426 224h216q144 0 232 107.5t88 275.5v243q0 167 -88 274t-232 107h-216v-398h243v-181h-243v-428z"/>
<glyph unicode="Ñ" horiz-adv-x="1445" d="M134 0v1456h292l587 -981l6 1v980h292v-1456h-292l-587 982l-6 -1v-981h-292zM347 1644q0 94 59.5 163.5t149.5 69.5q56 0 152 -43.5t148 -43.5q34 0 60 32t26 79l154 -45q0 -96 -59.5 -163.5t-150.5 -67.5q-70 0 -158.5 43.5t-140.5 43.5q-36 0 -60 -32.5t-24 -77.5z "/>
<glyph unicode="Ò" horiz-adv-x="1409" d="M97 597v262q0 267 167.5 442.5t436.5 175.5q271 0 441 -175.5t170 -442.5v-262q0 -269 -169 -443.5t-440 -174.5q-270 0 -438 175t-168 443zM388 597q0 -173 83 -282t232 -109q150 0 234 109t84 282v264q0 170 -85 279t-235 109q-148 0 -230.5 -109t-82.5 -279v-264z M322 1881l2 6h325l196 -266h-251z"/>
<glyph unicode="Ó" horiz-adv-x="1409" d="M97 597v262q0 267 167.5 442.5t436.5 175.5q271 0 441 -175.5t170 -442.5v-262q0 -269 -169 -443.5t-440 -174.5q-270 0 -438 175t-168 443zM388 597q0 -173 83 -282t232 -109q150 0 234 109t84 282v264q0 170 -85 279t-235 109q-148 0 -230.5 -109t-82.5 -279v-264z M564 1621l199 266h325l2 -6l-277 -260h-249z"/>
<glyph unicode="Ô" horiz-adv-x="1409" d="M97 597v262q0 267 167.5 442.5t436.5 175.5q271 0 441 -175.5t170 -442.5v-262q0 -269 -169 -443.5t-440 -174.5q-270 0 -438 175t-168 443zM388 597q0 -173 83 -282t232 -109q150 0 234 109t84 282v264q0 170 -85 279t-235 109q-148 0 -230.5 -109t-82.5 -279v-264z M339 1613v26l282 240h169l287 -243v-23h-232l-140 133l-139 -133h-227z"/>
<glyph unicode="Õ" horiz-adv-x="1409" d="M97 597v262q0 267 167.5 442.5t436.5 175.5q271 0 441 -175.5t170 -442.5v-262q0 -269 -169 -443.5t-440 -174.5q-270 0 -438 175t-168 443zM388 597q0 -173 83 -282t232 -109q150 0 234 109t84 282v264q0 170 -85 279t-235 109q-148 0 -230.5 -109t-82.5 -279v-264z M330 1665q0 94 59.5 163.5t149.5 69.5q56 0 152 -43.5t148 -43.5q34 0 60 32t26 79l154 -45q0 -96 -59.5 -163.5t-150.5 -67.5q-70 0 -158.5 43.5t-140.5 43.5q-36 0 -60 -32.5t-24 -77.5z"/>
<glyph unicode="Ö" horiz-adv-x="1409" d="M97 597v262q0 267 167.5 442.5t436.5 175.5q271 0 441 -175.5t170 -442.5v-262q0 -269 -169 -443.5t-440 -174.5q-270 0 -438 175t-168 443zM388 597q0 -173 83 -282t232 -109q150 0 234 109t84 282v264q0 170 -85 279t-235 109q-148 0 -230.5 -109t-82.5 -279v-264z M322 1622v204h266v-204h-266zM822 1622v204h266v-204h-266z"/>
<glyph unicode="×" horiz-adv-x="1088" d="M64 371l309 315l-309 315l172 164l303 -310l304 310l172 -164l-309 -315l309 -315l-172 -164l-304 309l-303 -309z"/>
<glyph unicode="Ø" horiz-adv-x="1410" d="M97 597v262q0 267 167.5 442.5t436.5 175.5q98 0 186 -25.5t162 -73.5l81 140h143l-128 -220q80 -84 123.5 -196.5t43.5 -242.5v-262q0 -269 -169 -443.5t-440 -174.5q-80 0 -152.5 16.5t-136.5 49.5l-81 -140h-143l121 207q-103 83 -158.5 209t-55.5 276zM388 597 q0 -73 15 -135t44 -106l6 -1l467 803q-41 43 -96.5 67t-122.5 24q-148 0 -230.5 -109t-82.5 -279v-264zM536 254q34 -24 76 -36t91 -12q150 0 234 109t84 282v264q0 47 -7.5 90t-20.5 77l-5 1z"/>
<glyph unicode="Ù" horiz-adv-x="1407" d="M120 503v953h293v-953q0 -146 78 -223t211 -77q135 0 214 77t79 223v953h293v-953q0 -246 -163 -385t-423 -139q-259 0 -420.5 139t-161.5 385zM321 1860l2 6h325l196 -266h-251z"/>
<glyph unicode="Ú" horiz-adv-x="1407" d="M120 503v953h293v-953q0 -146 78 -223t211 -77q135 0 214 77t79 223v953h293v-953q0 -246 -163 -385t-423 -139q-259 0 -420.5 139t-161.5 385zM563 1600l199 266h325l2 -6l-277 -260h-249z"/>
<glyph unicode="Û" horiz-adv-x="1407" d="M120 503v953h293v-953q0 -146 78 -223t211 -77q135 0 214 77t79 223v953h293v-953q0 -246 -163 -385t-423 -139q-259 0 -420.5 139t-161.5 385zM338 1592v26l282 240h169l287 -243v-23h-232l-140 133l-139 -133h-227z"/>
<glyph unicode="Ü" horiz-adv-x="1407" d="M120 503v953h293v-953q0 -146 78 -223t211 -77q135 0 214 77t79 223v953h293v-953q0 -246 -163 -385t-423 -139q-259 0 -420.5 139t-161.5 385zM321 1601v204h266v-204h-266zM821 1601v204h266v-204h-266z"/>
<glyph unicode="Ý" horiz-adv-x="1303" d="M10 1456h320l318 -671h6l318 671h320l-499 -944v-512h-292v527zM516 1600l199 266h325l2 -6l-277 -260h-249z"/>
<glyph unicode="Þ" horiz-adv-x="1247" d="M132 0v1456h292v-270h221q254 0 396 -124t142 -324q0 -201 -142 -325t-396 -124h-221v-289h-292zM424 514h221q123 0 184.5 63.5t61.5 158.5t-61.5 160t-184.5 65h-221v-447z"/>
<glyph unicode="ß" horiz-adv-x="1294" d="M135 0v1101q0 226 129 349t352 123q180 0 299 -95.5t119 -271.5q0 -108 -53.5 -205.5t-53.5 -165.5q0 -56 150 -197.5t150 -281.5q0 -189 -115 -283t-332 -94q-81 0 -160.5 15t-118.5 41l55 223q39 -22 96 -38.5t122 -16.5q76 0 119 38t43 103q0 71 -150 205.5 t-150 276.5q0 90 54.5 190t54.5 175q0 68 -45 113t-103 45q-76 0 -123.5 -67.5t-47.5 -184.5v-1097h-291z"/>
<glyph unicode="à" horiz-adv-x="1100" d="M57 305q0 159 122.5 246.5t357.5 87.5h164v86q0 78 -41 121t-122 43q-71 0 -109.5 -34.5t-38.5 -94.5h-281l-2 6v14q-1 128 119 222q126 100 331 100q195 0 315.5 -98t120.5 -281v-447q0 -76 11.5 -143t36.5 -133h-291q-16 37 -27.5 78t-16.5 84q-45 -79 -119 -131 t-176 -52q-170 0 -262 87.5t-92 238.5zM349 315q0 -55 35.5 -87.5t98.5 -32.5q76 0 136 38t82 88v153h-164q-93 0 -140.5 -46t-47.5 -113zM163 1538l2 6h325l196 -266h-251z"/>
<glyph unicode="á" horiz-adv-x="1100" d="M57 305q0 159 122.5 246.5t357.5 87.5h164v86q0 78 -41 121t-122 43q-71 0 -109.5 -34.5t-38.5 -94.5h-281l-2 6v14q-1 128 119 222q126 100 331 100q195 0 315.5 -98t120.5 -281v-447q0 -76 11.5 -143t36.5 -133h-291q-16 37 -27.5 78t-16.5 84q-45 -79 -119 -131 t-176 -52q-170 0 -262 87.5t-92 238.5zM349 315q0 -55 35.5 -87.5t98.5 -32.5q76 0 136 38t82 88v153h-164q-93 0 -140.5 -46t-47.5 -113zM405 1278l199 266h325l2 -6l-277 -260h-249z"/>
<glyph unicode="â" horiz-adv-x="1100" d="M57 305q0 159 122.5 246.5t357.5 87.5h164v86q0 78 -41 121t-122 43q-71 0 -109.5 -34.5t-38.5 -94.5h-281l-2 6v14q-1 128 119 222q126 100 331 100q195 0 315.5 -98t120.5 -281v-447q0 -76 11.5 -143t36.5 -133h-291q-16 37 -27.5 78t-16.5 84q-45 -79 -119 -131 t-176 -52q-170 0 -262 87.5t-92 238.5zM349 315q0 -55 35.5 -87.5t98.5 -32.5q76 0 136 38t82 88v153h-164q-93 0 -140.5 -46t-47.5 -113zM180 1270v26l282 240h169l287 -243v-23h-232l-140 133l-139 -133h-227z"/>
<glyph unicode="ã" horiz-adv-x="1100" d="M57 305q0 159 122.5 246.5t357.5 87.5h164v86q0 78 -41 121t-122 43q-71 0 -109.5 -34.5t-38.5 -94.5h-281l-2 6v14q-1 128 119 222q126 100 331 100q195 0 315.5 -98t120.5 -281v-447q0 -76 11.5 -143t36.5 -133h-291q-16 37 -27.5 78t-16.5 84q-45 -79 -119 -131 t-176 -52q-170 0 -262 87.5t-92 238.5zM349 315q0 -55 35.5 -87.5t98.5 -32.5q76 0 136 38t82 88v153h-164q-93 0 -140.5 -46t-47.5 -113zM171 1322q0 94 59.5 163.5t149.5 69.5q56 0 152 -43.5t148 -43.5q34 0 60 32t26 79l154 -45q0 -96 -59.5 -163.5t-150.5 -67.5 q-70 0 -158.5 43.5t-140.5 43.5q-36 0 -60 -32.5t-24 -77.5z"/>
<glyph unicode="ä" horiz-adv-x="1100" d="M57 305q0 159 122.5 246.5t357.5 87.5h164v86q0 78 -41 121t-122 43q-71 0 -109.5 -34.5t-38.5 -94.5h-281l-2 6v14q-1 128 119 222q126 100 331 100q195 0 315.5 -98t120.5 -281v-447q0 -76 11.5 -143t36.5 -133h-291q-16 37 -27.5 78t-16.5 84q-45 -79 -119 -131 t-176 -52q-170 0 -262 87.5t-92 238.5zM349 315q0 -55 35.5 -87.5t98.5 -32.5q76 0 136 38t82 88v153h-164q-93 0 -140.5 -46t-47.5 -113zM163 1279v204h266v-204h-266zM663 1279v204h266v-204h-266z"/>
<glyph unicode="å" horiz-adv-x="1100" d="M57 305q0 159 122.5 246.5t357.5 87.5h164v86q0 78 -41 121t-122 43q-71 0 -109.5 -34.5t-38.5 -94.5h-281l-2 6v14q-1 128 119 222q126 100 331 100q195 0 315.5 -98t120.5 -281v-447q0 -76 11.5 -143t36.5 -133h-291q-16 37 -27.5 78t-16.5 84q-45 -79 -119 -131 t-176 -52q-170 0 -262 87.5t-92 238.5zM349 315q0 -55 35.5 -87.5t98.5 -32.5q76 0 136 38t82 88v153h-164q-93 0 -140.5 -46t-47.5 -113zM359 1424q0 73 54 122.5t134 49.5q78 0 131.5 -49.5t53.5 -122.5q0 -74 -53.5 -121.5t-131.5 -47.5q-80 0 -134 47.5t-54 121.5z M475 1424q0 -31 20.5 -51.5t51.5 -20.5q30 0 49.5 20t19.5 52t-19.5 52.5t-49.5 20.5q-31 0 -51.5 -20.5t-20.5 -52.5z"/>
<glyph unicode="æ" horiz-adv-x="1771" d="M81 317q0 159 126.5 245t369.5 86h181v59q0 79 -40.5 124.5t-114.5 45.5q-81 0 -127.5 -37.5t-46.5 -93.5l-282 18l-2 6q-6 144 121.5 238t339.5 94q102 0 186 -27.5t143 -79.5q61 52 142 79.5t180 27.5q212 0 333.5 -132t121.5 -358v-158h-651l-2 -6q4 -111 66 -178 t186 -67q92 0 153.5 20t141.5 61l77 -184q-62 -48 -169.5 -84.5t-233.5 -36.5q-129 0 -229 40.5t-167 117.5q-60 -69 -161.5 -113.5t-240.5 -44.5q-192 0 -296.5 90.5t-104.5 247.5zM372 313q0 -59 41.5 -93.5t123.5 -34.5q58 0 121 30.5t100 72.5v176h-179 q-97 0 -152 -44.5t-55 -106.5zM1061 649l2 -5h362v28q0 94 -42.5 149.5t-125.5 55.5q-95 0 -142 -61.5t-54 -166.5z"/>
<glyph unicode="ç" horiz-adv-x="1056" d="M62 525v30q0 238 130.5 392.5t369.5 154.5q198 0 319 -114q117 -110 117 -288v-12l-2 -6h-266q0 84 -44.5 139.5t-123.5 55.5q-113 0 -160.5 -90.5t-47.5 -231.5v-30q0 -144 47.5 -233t162.5 -89q76 0 121 45.5t45 121.5h266l2 -6v-10q0 -156 -122 -264 q-126 -110 -312 -111q-240 0 -371 153.5t-131 392.5zM417 -138l31 142h219l-11 -57q64 -11 107 -52t43 -121q0 -107 -91.5 -171t-259.5 -64l-7 161q51 0 81 20.5t30 62.5q0 41 -32 57.5t-110 21.5z"/>
<glyph unicode="è" horiz-adv-x="1071" d="M67 510v40q0 243 132 398q131 154 360 154h3q218 0 334.5 -133.5t116.5 -359.5v-151h-645l-3 -6q7 -111 67.5 -180t179.5 -69q98 0 166.5 20t141.5 61l79 -180q-65 -53 -176 -89t-242 -36q-242 0 -378 148.5t-136 382.5zM369 656l2 -5h356v22q0 95 -39 149.5t-126 54.5 q-88 0 -135.5 -60.5t-57.5 -160.5zM156 1539l2 6h325l196 -266h-251z"/>
<glyph unicode="é" horiz-adv-x="1071" d="M67 510v40q0 243 132 398q131 154 360 154h3q218 0 334.5 -133.5t116.5 -359.5v-151h-645l-3 -6q7 -111 67.5 -180t179.5 -69q98 0 166.5 20t141.5 61l79 -180q-65 -53 -176 -89t-242 -36q-242 0 -378 148.5t-136 382.5zM369 656l2 -5h356v22q0 95 -39 149.5t-126 54.5 q-88 0 -135.5 -60.5t-57.5 -160.5zM398 1279l199 266h325l2 -6l-277 -260h-249z"/>
<glyph unicode="ê" horiz-adv-x="1071" d="M67 510v40q0 243 132 398q131 154 360 154h3q218 0 334.5 -133.5t116.5 -359.5v-151h-645l-3 -6q7 -111 67.5 -180t179.5 -69q98 0 166.5 20t141.5 61l79 -180q-65 -53 -176 -89t-242 -36q-242 0 -378 148.5t-136 382.5zM369 656l2 -5h356v22q0 95 -39 149.5t-126 54.5 q-88 0 -135.5 -60.5t-57.5 -160.5zM173 1271v26l282 240h169l287 -243v-23h-232l-140 133l-139 -133h-227z"/>
<glyph unicode="ë" horiz-adv-x="1071" d="M67 510v40q0 243 132 398q131 154 360 154h3q218 0 334.5 -133.5t116.5 -359.5v-151h-645l-3 -6q7 -111 67.5 -180t179.5 -69q98 0 166.5 20t141.5 61l79 -180q-65 -53 -176 -89t-242 -36q-242 0 -378 148.5t-136 382.5zM369 656l2 -5h356v22q0 95 -39 149.5t-126 54.5 q-88 0 -135.5 -60.5t-57.5 -160.5zM156 1280v204h266v-204h-266zM656 1280v204h266v-204h-266z"/>
<glyph unicode="ì" horiz-adv-x="562" d="M133 0v1082h292v-1082h-292zM-102 1517l2 6h325l196 -266h-251z"/>
<glyph unicode="í" horiz-adv-x="562" d="M133 0v1082h292v-1082h-292zM139 1257l199 266h325l2 -6l-277 -260h-249z"/>
<glyph unicode="î" horiz-adv-x="562" d="M133 0v1082h292v-1082h-292zM-85 1250v26l282 240h169l287 -243v-23h-232l-140 133l-139 -133h-227z"/>
<glyph unicode="ï" horiz-adv-x="562" d="M133 0v1082h292v-1082h-292zM-102 1258v204h266v-204h-266zM398 1258v204h266v-204h-266z"/>
<glyph unicode="ð" horiz-adv-x="1218" d="M48 468q0 226 134.5 362.5t365.5 136.5q81 0 153 -25.5t124 -70.5l4 4q-14 83 -54 153.5t-100 125.5l-245 -136l-78 113l192 106l-1 6q-31 16 -68 30t-77 26l92 218q88 -19 168.5 -52.5t149.5 -80.5l198 109l77 -113l-162 -90q102 -106 158.5 -245t56.5 -303v-196 q0 -250 -157 -408.5t-392 -158.5q-238 0 -388.5 140.5t-150.5 348.5zM340 468q0 -112 68 -188.5t183 -76.5q116 0 184.5 96.5t68.5 246.5v118q-35 39 -99 65t-151 26q-122 0 -188 -79t-66 -208z"/>
<glyph unicode="ñ" d="M107 0v1082h272l13 -155q54 83 133 129t177 46q164 0 256 -105.5t92 -333.5v-663h-293v662q0 116 -40.5 164.5t-121.5 48.5q-65 0 -114.5 -24.5t-81.5 -67.5v-783h-292zM202 1322q0 94 59.5 163.5t149.5 69.5q56 0 152 -43.5t148 -43.5q34 0 60 32t26 79l154 -45 q0 -96 -59.5 -163.5t-150.5 -67.5q-70 0 -158.5 43.5t-140.5 43.5q-36 0 -60 -32.5t-24 -77.5z"/>
<glyph unicode="ò" d="M67 530v21q0 242 135 396.5t374 154.5q240 0 376 -154t136 -397v-21q0 -244 -135.5 -397.5t-374.5 -153.5q-240 0 -375.5 153.5t-135.5 397.5zM358 530q0 -148 52 -237.5t168 -89.5q113 0 165.5 90t52.5 237v21q0 144 -53 235t-167 91q-113 0 -165.5 -91.5t-52.5 -234.5 v-21zM194 1538l2 6h325l196 -266h-251z"/>
<glyph unicode="ó" d="M67 530v21q0 242 135 396.5t374 154.5q240 0 376 -154t136 -397v-21q0 -244 -135.5 -397.5t-374.5 -153.5q-240 0 -375.5 153.5t-135.5 397.5zM358 530q0 -148 52 -237.5t168 -89.5q113 0 165.5 90t52.5 237v21q0 144 -53 235t-167 91q-113 0 -165.5 -91.5t-52.5 -234.5 v-21zM436 1278l199 266h325l2 -6l-277 -260h-249z"/>
<glyph unicode="ô" d="M67 530v21q0 242 135 396.5t374 154.5q240 0 376 -154t136 -397v-21q0 -244 -135.5 -397.5t-374.5 -153.5q-240 0 -375.5 153.5t-135.5 397.5zM358 530q0 -148 52 -237.5t168 -89.5q113 0 165.5 90t52.5 237v21q0 144 -53 235t-167 91q-113 0 -165.5 -91.5t-52.5 -234.5 v-21zM211 1270v26l282 240h169l287 -243v-23h-232l-140 133l-139 -133h-227z"/>
<glyph unicode="õ" d="M67 530v21q0 242 135 396.5t374 154.5q240 0 376 -154t136 -397v-21q0 -244 -135.5 -397.5t-374.5 -153.5q-240 0 -375.5 153.5t-135.5 397.5zM358 530q0 -148 52 -237.5t168 -89.5q113 0 165.5 90t52.5 237v21q0 144 -53 235t-167 91q-113 0 -165.5 -91.5t-52.5 -234.5 v-21zM202 1322q0 94 59.5 163.5t149.5 69.5q56 0 152 -43.5t148 -43.5q34 0 60 32t26 79l154 -45q0 -96 -59.5 -163.5t-150.5 -67.5q-70 0 -158.5 43.5t-140.5 43.5q-36 0 -60 -32.5t-24 -77.5z"/>
<glyph unicode="ö" d="M67 530v21q0 242 135 396.5t374 154.5q240 0 376 -154t136 -397v-21q0 -244 -135.5 -397.5t-374.5 -153.5q-240 0 -375.5 153.5t-135.5 397.5zM358 530q0 -148 52 -237.5t168 -89.5q113 0 165.5 90t52.5 237v21q0 144 -53 235t-167 91q-113 0 -165.5 -91.5t-52.5 -234.5 v-21zM194 1279v204h266v-204h-266zM694 1279v204h266v-204h-266z"/>
<glyph unicode="÷" horiz-adv-x="1168" d="M63 573v227h1029v-227h-1029zM432 164v233h293v-233h-293zM432 973v233h293v-233h-293z"/>
<glyph unicode="ø" d="M67 530v21q0 242 135 396.5t374 154.5q50 0 96.5 -8t90.5 -22l70 143h161l-103 -211q95 -74 146 -191.5t51 -261.5v-21q0 -244 -135.5 -397.5t-374.5 -153.5q-48 0 -92 7t-84 19l-71 -146h-161l103 211q-101 71 -153.5 190.5t-52.5 269.5zM358 530q0 -62 8.5 -114 t26.5 -86l6 -1l260 531q-19 8 -39.5 12.5t-43.5 4.5q-113 0 -165.5 -91.5t-52.5 -234.5v-21zM505 215q15 -7 33.5 -9.5t39.5 -2.5q113 0 165.5 90t52.5 237v21q0 54 -8 102t-22 82l-6 1z"/>
<glyph unicode="ù" d="M105 455v627h291v-629q0 -142 38.5 -194.5t119.5 -52.5q70 0 120 22.5t82 66.5v787h292v-1082h-242l-31 160q-50 -87 -127 -134t-179 -47q-171 0 -267.5 116t-96.5 360zM193 1517l2 6h325l196 -266h-251z"/>
<glyph unicode="ú" d="M105 455v627h291v-629q0 -142 38.5 -194.5t119.5 -52.5q70 0 120 22.5t82 66.5v787h292v-1082h-242l-31 160q-50 -87 -127 -134t-179 -47q-171 0 -267.5 116t-96.5 360zM435 1257l199 266h325l2 -6l-277 -260h-249z"/>
<glyph unicode="û" d="M105 455v627h291v-629q0 -142 38.5 -194.5t119.5 -52.5q70 0 120 22.5t82 66.5v787h292v-1082h-242l-31 160q-50 -87 -127 -134t-179 -47q-171 0 -267.5 116t-96.5 360zM210 1250v26l282 240h169l287 -243v-23h-232l-140 133l-139 -133h-227z"/>
<glyph unicode="ü" d="M105 455v627h291v-629q0 -142 38.5 -194.5t119.5 -52.5q70 0 120 22.5t82 66.5v787h292v-1082h-242l-31 160q-50 -87 -127 -134t-179 -47q-171 0 -267.5 116t-96.5 360zM193 1258v204h266v-204h-266zM693 1258v204h266v-204h-266z"/>
<glyph unicode="ý" horiz-adv-x="1046" d="M5 1082h314l183 -628l12 -60h6l207 688h314l-439 -1244q-46 -116 -125 -195.5t-237 -79.5q-37 0 -68.5 6t-76.5 17l34 213q13 -2 28 -4t27 -2q72 0 111 35.5t60 88.5l34 84zM382 1257l199 266h325l2 -6l-277 -260h-249z"/>
<glyph unicode="þ" horiz-adv-x="1162" d="M121 0v1560h292v-591q47 64 112 98.5t150 34.5q201 0 312 -157t111 -413v-21q0 -240 -111 -386t-310 -146q-85 0 -151 31.5t-113 92.5v-519h-291v416h-1zM413 297q27 -46 73.5 -70t114.5 -24q106 0 155.5 83t49.5 225v21q0 153 -51 248t-156 95q-66 0 -112.5 -27 t-73.5 -77v-474z"/>
<glyph unicode="ÿ" horiz-adv-x="1046" d="M5 1082h314l183 -628l12 -60h6l207 688h314l-439 -1244q-46 -116 -125 -195.5t-237 -79.5q-37 0 -68.5 6t-76.5 17l34 213q13 -2 28 -4t27 -2q72 0 111 35.5t60 88.5l34 84zM141 1258v204h266v-204h-266zM641 1258v204h266v-204h-266z"/>
<glyph unicode="ı" horiz-adv-x="562" d="M133 0v1082h292v-1082h-292z"/>
<glyph unicode="Œ" horiz-adv-x="1984" d="M97 576v304q0 265 167 431t437 166q69 0 140 -6t150 -15h810v-225h-640v-366h540v-225h-540v-416h642v-224h-812q-92 -10 -156.5 -15.5t-131.5 -5.5q-270 0 -438 165.5t-168 431.5zM388 576q0 -182 83.5 -277t231.5 -95q42 0 84 2t82 7v1029q-44 4 -85.5 7t-82.5 3 q-148 0 -230.5 -94.5t-82.5 -275.5v-306z"/>
<glyph unicode="œ" horiz-adv-x="1848" d="M67 530v21q0 242 135 396.5t374 154.5q125 0 224 -44.5t166 -125.5q64 82 159.5 126t216.5 44q218 0 334.5 -133.5t116.5 -359.5v-151h-645l-3 -6q7 -111 67.5 -180t179.5 -69q98 0 166.5 20t141.5 61l79 -180q-65 -53 -176 -89t-242 -36q-129 0 -229.5 44t-166.5 125 q-67 -81 -165 -125t-222 -44q-240 0 -375.5 153.5t-135.5 397.5zM358 530q0 -148 52 -237.5t168 -89.5q113 0 165.5 90t52.5 237v21q0 144 -53 235t-167 91q-113 0 -165.5 -91.5t-52.5 -234.5v-21zM1149 656l2 -5h356v22q0 95 -39 149.5t-126 54.5q-88 0 -135.5 -60.5 t-57.5 -160.5z"/>
<glyph unicode="Ÿ" horiz-adv-x="1303" d="M10 1456h320l318 -671h6l318 671h320l-499 -944v-512h-292v527zM274 1601v204h266v-204h-266zM774 1601v204h266v-204h-266z"/>
<glyph unicode="ˆ" horiz-adv-x="1016" d="M137 1252v26l282 240h169l287 -243v-23h-232l-140 133l-139 -133h-227z"/>
<glyph unicode="˚" horiz-adv-x="682" d="M154 1305q0 73 54 122.5t134 49.5q78 0 131.5 -49.5t53.5 -122.5q0 -74 -53.5 -121.5t-131.5 -47.5q-80 0 -134 47.5t-54 121.5zM270 1305q0 -31 20.5 -51.5t51.5 -20.5q30 0 49.5 20t19.5 52t-19.5 52.5t-49.5 20.5q-31 0 -51.5 -20.5t-20.5 -52.5z"/>
<glyph unicode="˜" horiz-adv-x="986" d="M119 1272q0 94 59.5 163.5t149.5 69.5q56 0 152 -43.5t148 -43.5q34 0 60 32t26 79l154 -45q0 -96 -59.5 -163.5t-150.5 -67.5q-70 0 -158.5 43.5t-140.5 43.5q-36 0 -60 -32.5t-24 -77.5z"/>
<glyph unicode=" " horiz-adv-x="961"/>
<glyph unicode=" " horiz-adv-x="1922"/>
<glyph unicode=" " horiz-adv-x="961"/>
<glyph unicode=" " horiz-adv-x="1922"/>
<glyph unicode=" " horiz-adv-x="640"/>
<glyph unicode=" " horiz-adv-x="480"/>
<glyph unicode=" " horiz-adv-x="320"/>
<glyph unicode=" " horiz-adv-x="320"/>
<glyph unicode=" " horiz-adv-x="240"/>
<glyph unicode=" " horiz-adv-x="384"/>
<glyph unicode=" " horiz-adv-x="106"/>
<glyph unicode="‐" horiz-adv-x="892" d="M146 510v225h589v-225h-589z"/>
<glyph unicode="‑" horiz-adv-x="892" d="M146 510v225h589v-225h-589z"/>
<glyph unicode="‒" horiz-adv-x="892" d="M146 510v225h589v-225h-589z"/>
<glyph unicode="–" horiz-adv-x="1413" d="M150.798 601v228h1084.19v-228h-1084.19z"/>
<glyph unicode="—" horiz-adv-x="1670" d="M152.597 601v228h1334.38v-228h-1334.38z"/>
<glyph unicode="‘" horiz-adv-x="559" d="M143 912v256l102 288h144v-544h-246z"/>
<glyph unicode="’" horiz-adv-x="557" d="M159 912v544h246v-259l-102 -285h-144z"/>
<glyph unicode="‚" horiz-adv-x="600" d="M167 -263v550h262v-268l-102 -282h-160z"/>
<glyph unicode="“" horiz-adv-x="877" d="M121 912v256l102 288h144v-544h-246zM449 912v256l102 288h144v-544h-246z"/>
<glyph unicode="”" horiz-adv-x="878" d="M124 912v544h246v-259l-102 -285h-144zM460 912v544h246v-259l-102 -285h-144z"/>
<glyph unicode="„" horiz-adv-x="890" d="M159 -225v523h231v-243l-102 -280h-129zM501 -225v523h231v-243l-102 -280h-129z"/>
<glyph unicode="•" horiz-adv-x="737" d="M135 716v90q0 100 65 164t172 64q110 0 175 -63.5t65 -164.5v-90q0 -101 -64.5 -163t-173.5 -62t-174 62.5t-65 162.5z"/>
<glyph unicode="…" horiz-adv-x="1519" d="M144 0v256h292v-256h-292zM587 0v256h292v-256h-292zM1007 0v256h292v-256h-292z"/>
<glyph unicode=" " horiz-adv-x="384"/>
<glyph unicode="‹" horiz-adv-x="639" d="M108 541v19l280 390h187l-240 -400l240 -399h-187z"/>
<glyph unicode="›" horiz-adv-x="619" d="M80 151l239 399l-239 400h188l280 -390v-19l-280 -390h-188z"/>
<glyph unicode="⁄" horiz-adv-x="913" d="M29 184l711 1138l142 -75l-711 -1138z"/>
<glyph unicode=" " horiz-adv-x="480"/>
<glyph unicode="€" horiz-adv-x="1116" d="M71 485v153h146v150h-146v153h146v13q0 238 150.5 380.5t394.5 142.5q60 0 117.5 -8t125.5 -23l-21 -229q-53 16 -109.5 25.5t-112.5 9.5q-118 0 -185.5 -79t-67.5 -217v-15h428v-153h-428v-150h428v-153h-428v-8q0 -132 67.5 -203t187.5 -71q58 0 113.5 8.5t106.5 25.5 l21 -227q-57 -15 -118 -23t-123 -8q-245 0 -396 135t-151 363v8h-146z"/>
<glyph unicode="™" horiz-adv-x="1294" d="M96 1351v105h398v-105h-128v-434h-144v434h-126zM565 915v541h159l119 -362h6l120 362h154v-541h-129v282l-6 1l-105 -283h-73l-110 298l-6 -1v-297h-129z"/>
<glyph unicode="−" horiz-adv-x="1137" d="M146 601v228h834v-228h-834z"/>
<glyph unicode="" horiz-adv-x="1080" d="M0 1080h1080v-1080h-1080v1080z"/>
<glyph unicode="ﬁ" horiz-adv-x="1249" d="M20 877v205h161v74q0 204 124.5 314.5t350.5 110.5q78 0 154 -15.5t176 -44.5l-42 -230q-73 22 -132.5 34t-136.5 12q-101 0 -151.5 -46t-50.5 -135v-74h213v-205h-213v-877h-292v877h-161zM829 0v1082h292v-1082h-292z"/>
<glyph unicode="ﬂ" horiz-adv-x="1261" d="M27 877v205h161v120q0 182 105 280.5t295 98.5q37 0 75.5 -5.5t84.5 -15.5l-25 -217q-24 4 -46.5 7t-52.5 3q-71 0 -107.5 -39t-36.5 -112v-120h208v-205h-208v-877h-292v877h-161zM841 0v1560h292v-1560h-292z"/>
<glyph unicode="ﬃ" horiz-adv-x="1963" d="M27 877v205h161v120q0 182 105 280.5t295 98.5q37 0 75.5 -5.5t84.5 -15.5l-25 -217q-24 4 -46.5 7t-52.5 3q-71 0 -107.5 -39t-36.5 -112v-120h208v-205h-208v-877h-292v877h-161zM734 877v205h161v74q0 204 124.5 314.5t350.5 110.5q78 0 154 -15.5t176 -44.5l-42 -230 q-73 22 -132.5 34t-136.5 12q-101 0 -151.5 -46t-50.5 -135v-74h213v-205h-213v-877h-292v877h-161zM1543 0v1082h292v-1082h-292z"/>
<glyph unicode="ﬄ" horiz-adv-x="1975" d="M27 877v205h161v120q0 182 105 280.5t295 98.5q37 0 75.5 -5.5t84.5 -15.5l-25 -217q-24 4 -46.5 7t-52.5 3q-71 0 -107.5 -39t-36.5 -112v-120h208v-205h-208v-877h-292v877h-161zM741 877v205h161v120q0 182 105 280.5t295 98.5q37 0 75.5 -5.5t84.5 -15.5l-25 -217 q-24 4 -46.5 7t-52.5 3q-71 0 -107.5 -39t-36.5 -112v-120h208v-205h-208v-877h-292v877h-161zM1555 0v1560h292v-1560h-292z"/>
<glyph horiz-adv-x="896" d="M64 265l424 536h211v-505h101v-157h-101v-139h-211v139h-410zM280 296h208v257l-6 2l-13 -20z"/>
<glyph horiz-adv-x="862" d="M95 227l2 6h201q0 -42 31.5 -65.5t91.5 -23.5q56 0 90 24t34 68q0 50 -35 77t-102 27h-111v133h111q62 0 92 24.5t30 70.5q0 38 -28.5 63.5t-83.5 25.5q-51 0 -79.5 -22t-28.5 -53h-200l-2 6q-6 101 82 162.5t222 61.5q152 0 240.5 -59.5t88.5 -169.5q0 -55 -35.5 -100.5 t-96.5 -70.5q70 -24 107.5 -71.5t37.5 -115.5q0 -112 -89.5 -174t-241.5 -62q-146 0 -240 62.5t-88 175.5z"/>
<glyph horiz-adv-x="845" d="M108 556q-6 106 82.5 181t236.5 75q144 0 223 -65t79 -183q0 -82 -53.5 -144.5t-178.5 -165.5l-109 -93l2 -6h346v-155h-622v155l309 252q60 50 77.5 83.5t17.5 74.5q0 39 -23.5 65.5t-72.5 26.5q-55 0 -83 -30t-28 -77h-201z"/>
<glyph horiz-adv-x="568" d="M78 630v159l338 23v-812h-211v630h-127z"/>
</font>
</defs></svg>