<?xml version="1.0" encoding="UTF-8" standalone="no"?>
<svg width="13px" height="14px" viewBox="0 0 13 14" version="1.1" xmlns="http://www.w3.org/2000/svg" xmlns:xlink="http://www.w3.org/1999/xlink">
    <!-- Generator: Sketch 48.2 (47327) - http://www.bohemiancoding.com/sketch -->
    <title>7</title>
    <desc>Created with Sketch.</desc>
    <defs></defs>
    <g id="Artboard-3" stroke="none" stroke-width="1" fill="none" fill-rule="evenodd" transform="translate(-285.000000, -164.000000)">
        <g id="7" transform="translate(285.000000, 164.000000)" fill="#514F66" fill-rule="nonzero">
            <path d="M11.7425854,4.8725122 L12.5040488,3.04346341 C12.5965854,2.82117073 12.5970976,2.57617073 12.5054146,2.35336585 C12.4137317,2.13073171 12.2407805,1.95709756 12.0183171,1.86456098 L8.08892683,0.228439024 C7.63,0.0375609756 7.1012439,0.255414634 6.91019512,0.714170732 L5.24060976,4.72380488 C5.22490244,4.76136585 5.21790244,4.79995122 5.21602439,4.83836585 L4.56195122,4.83836585 L5.73658537,1.1792439 C5.75434146,1.12358537 5.79292683,1.07834146 5.84482927,1.05153659 C5.89656098,1.02473171 5.95580488,1.01978049 6.01163415,1.03770732 C6.19073171,1.09541463 6.3834878,0.996560976 6.44119512,0.81695122 C6.49890244,0.637341463 6.40004878,0.445097561 6.22043902,0.387390244 C5.74682927,0.235609756 5.23856098,0.496829268 5.08643902,0.970268293 L3.88039024,4.72721951 C3.86860976,4.76409756 3.86485366,4.80131707 3.86553659,4.83802439 L3.34139024,4.83802439 L3.9135122,1.82239024 C3.93604878,1.70390244 4.05129268,1.62604878 4.16909756,1.6482439 C4.35382927,1.68341463 4.53292683,1.56185366 4.56826829,1.37643902 C4.60343902,1.19119512 4.48170732,1.01243902 4.29646341,0.977268293 C3.80765854,0.884219512 3.3352439,1.20639024 3.24270732,1.69485366 L3.07402439,2.58419512 L1.47939024,2.58419512 C0.691463415,2.58419512 0.054804878,3.20070732 0.0298780488,3.98795122 C0.0298780488,3.98863415 0.0300487805,3.98931707 0.0300487805,3.99 C0.0300487805,3.99307317 0.029195122,3.99580488 0.029195122,3.99870732 L0.029195122,12.3179512 C0.029195122,13.1570976 0.71195122,13.8398537 1.55109756,13.8398537 L11.4248537,13.8398537 C12.264,13.8398537 12.9467561,13.1570976 12.9467561,12.3179512 L12.9467561,6.36043902 C12.9465854,5.63021951 12.4296098,5.01917073 11.7425854,4.8725122 Z M12.2636585,10.3244878 L10.4383659,10.3244878 L10.4383659,8.64278049 L12.2636585,8.64278049 L12.2636585,10.3244878 Z M11.8740488,2.61373171 C11.8962439,2.66768293 11.8960732,2.72709756 11.8737073,2.78104878 L11.512439,3.64887805 C11.2141707,3.49095122 10.9819756,3.23673171 10.851878,2.92070732 C10.7412439,2.65214634 10.7139268,2.36326829 10.7699268,2.08463415 L11.7559024,2.4952439 C11.8098537,2.51760976 11.8516829,2.55978049 11.8740488,2.61373171 Z M7.82668293,0.859121951 L8.81214634,1.26939024 C8.45890244,1.79404878 7.79407317,2.03529268 7.17943902,1.84441463 L7.54070732,0.976756098 C7.58697561,0.865609756 7.71536585,0.813195122 7.82668293,0.859121951 Z M6.91685366,2.47492683 C7.14409756,2.55312195 7.37629268,2.59273171 7.60592683,2.59273171 C8.35065854,2.59273171 9.06226829,2.19953659 9.45017073,1.53504878 L10.1332683,1.8194878 C10.012561,2.26919512 10.0400488,2.74314634 10.2203415,3.18090244 C10.4199268,3.66560976 10.7835854,4.04992683 11.2498537,4.27921951 L11.0400244,4.78321951 C11.0325122,4.80131707 11.027561,4.81992683 11.0232927,4.83853659 L10.0960488,4.83853659 C9.89595122,4.32856098 9.50821951,3.93178049 9.00217073,3.72109756 C8.50807317,3.51519512 7.96378049,3.51434146 7.46917073,3.71819512 C6.97456098,3.92204878 6.58887805,4.30619512 6.38331707,4.80012195 C6.37802439,4.8127561 6.37529268,4.82573171 6.37170732,4.83853659 L5.93292683,4.83853659 L6.91685366,2.47492683 Z M9.3304878,4.83853659 L7.13317073,4.83853659 C7.27726829,4.62102439 7.4824878,4.45114634 7.72919512,4.34956098 C8.05546341,4.21519512 8.41417073,4.21604878 8.73958537,4.35143902 C8.98509756,4.45370732 9.1877561,4.62273171 9.3304878,4.83853659 Z M1.47939024,3.26797561 L2.94443902,3.26797561 L2.66102439,4.76187805 C2.65607317,4.78765854 2.65487805,4.81326829 2.65590244,4.83853659 L1.55109756,4.83853659 C1.09114634,4.83853659 0.717243902,4.46634146 0.71297561,4.00741463 C0.727487805,3.59253659 1.0634878,3.26797561 1.47939024,3.26797561 Z M11.4246829,13.1576098 L1.55092683,13.1576098 C1.08841463,13.1576098 0.71195122,12.7813171 0.71195122,12.3186341 L0.71195122,5.26878049 C0.952682927,5.42841463 1.24104878,5.52146341 1.55092683,5.52146341 L11.4246829,5.52146341 C11.8871951,5.52146341 12.2636585,5.8977561 12.2636585,6.36043902 L12.2636585,7.95985366 L10.3897073,7.95985366 C10.0400488,7.95985366 9.75543902,8.24446341 9.75543902,8.59412195 L9.75543902,10.3731463 C9.75543902,10.7228049 10.0400488,11.0074146 10.3897073,11.0074146 L12.2636585,11.0074146 L12.2636585,12.3188049 C12.2636585,12.7813171 11.8871951,13.1576098 11.4246829,13.1576098 Z" id="Shape"></path>
            <circle id="Oval" cx="11.1743902" cy="9.48363415" r="1"></circle>
        </g>
    </g>
</svg>