id,name,display_name ,category_id,feature_group_id,is_filter,sort_order,status,is_delete,created,modified
1,Included Software 22,Included Software 44,Computer Accessories,Software,0,1,1,0,2016-08-11 01:20:52,2016-08-11 01:20:52
2,Pointer Device 33,Pointer Device 55,Computer Accessories,Input,0,2,1,0,2016-08-11 01:20:52,2016-08-11 01:20:52
3,Web Camera,Web Camera,Computer Accessories,Input,0,3,1,0,2016-08-11 01:20:52,2016-08-11 01:20:52
4,Keyboard,Keyboard,Computer Accessories,Input,0,4,1,0,2016-08-11 01:20:52,2016-08-11 01:20:52
5,Power Supply,Power Supply,Computer Accessories,Power,0,5,1,0,2016-08-11 01:20:52,2016-08-11 01:20:52
6,Battery Cell,Battery Cell,Computer Accessories,Power,0,6,1,0,2016-08-11 01:20:52,2016-08-11 01:20:52
7,Warranty Summary,Warranty Summary,Computer Accessories,Warranty,0,7,1,0,2016-08-11 01:20:52,2016-08-11 01:20:52
8,Resolution,Resolution,Computer Accessories,Display,0,8,1,0,2016-08-11 01:20:52,2016-08-11 01:20:52
9,Screen Size,Screen Size,Computer Accessories,Display,0,9,1,0,2016-08-11 01:20:52,2016-08-11 01:20:52
10,Screen Type,Screen Type,Computer Accessories,Display,0,10,1,0,2016-08-11 01:20:52,2016-08-11 01:20:52
11,Ethernet,Ethernet,Computer Accessories,Communication,0,11,1,0,2016-08-11 01:20:52,2016-08-11 01:20:52
12,Bluetooth,Bluetooth,Computer Accessories,Communication,0,12,1,0,2016-08-11 01:20:52,2016-08-11 01:20:52
13,Wireless LAN,Wireless LAN,Computer Accessories,Communication,0,13,1,0,2016-08-11 01:20:52,2016-08-11 01:20:52
14,Mic In,Mic In,Computer Accessories,Ports/Slots,0,14,1,0,2016-08-11 01:20:52,2016-08-11 01:20:52
15,Multi Card Slot,Multi Card Slot,Computer Accessories,Ports/Slots,0,15,1,0,2016-08-11 01:20:52,2016-08-11 01:20:52
16,USB Port,USB Port,Computer Accessories,Ports/Slots,0,16,1,0,2016-08-11 01:20:52,2016-08-11 01:20:52
17,HDMI Port,HDMI Port,Computer Accessories,Ports/Slots,0,17,1,0,2016-08-11 01:20:52,2016-08-11 01:20:52
18,Other Ports,Other Ports,Computer Accessories,Ports/Slots,0,18,1,0,2016-08-11 01:20:52,2016-08-11 01:20:52
19,Hardware Interface,Hardware Interface,Computer Accessories,Storage,0,19,1,0,2016-08-11 01:20:52,2016-08-11 01:20:52
20,SSD Capacity,SSD Capacity,Computer Accessories,Storage,0,20,1,0,2016-08-11 01:20:53,2016-08-11 01:20:53
21,In The Box,In The Box,Computer Accessories,General,0,21,1,0,2016-08-11 01:20:53,2016-08-11 01:20:53
22,Brand,Brand,Computer Accessories,General,0,22,1,0,2016-08-11 01:20:53,2016-08-11 01:20:53
23,Model Name,Model Name,Computer Accessories,General,0,23,1,0,2016-08-11 01:20:53,2016-08-11 01:20:53
24,Part Number,Part Number,Computer Accessories,General,0,24,1,0,2016-08-11 01:20:53,2016-08-11 01:20:53
25,Model ID,Model ID,Computer Accessories,General,0,25,1,0,2016-08-11 01:20:53,2016-08-11 01:20:53
26,Color,Color,Computer Accessories,General,0,26,1,0,2016-08-11 01:20:53,2016-08-11 01:20:53
27,Lifestyle,Lifestyle,Computer Accessories,General,0,27,1,0,2016-08-11 01:20:53,2016-08-11 01:20:53
28,Expandable Memory,Expandable Memory,Computer Accessories,Memory,0,28,1,0,2016-08-11 01:20:53,2016-08-11 01:20:53
29,System Memory,System Memory,Computer Accessories,Memory,0,29,1,0,2016-08-11 01:20:53,2016-08-11 01:20:53
30,Weight,Weight,Computer Accessories,Machine Dimensions,0,30,1,0,2016-08-11 01:20:53,2016-08-11 01:20:53
31,Dimension,Dimension,Computer Accessories,Machine Dimensions,0,31,1,0,2016-08-11 01:20:53,2016-08-11 01:20:53
32,Color,Color,Computer Accessories,Machine Dimensions,0,32,1,0,2016-08-11 01:20:53,2016-08-11 01:20:53
33,Graphic Processor,Graphic Processor,Computer Accessories,Graphics,0,33,1,0,2016-08-11 01:20:53,2016-08-11 01:20:53
34,Internal Mic,Internal Mic,Computer Accessories,Audio,0,34,1,0,2016-08-11 01:20:53,2016-08-11 01:20:53
35,Sound,Sound,Computer Accessories,Audio,0,35,1,0,2016-08-11 01:20:53,2016-08-11 01:20:53
36,Speakers,Speakers,Computer Accessories,Audio,0,36,1,0,2016-08-11 01:20:53,2016-08-11 01:20:53
37,Operating System,Operating System,Computer Accessories,Platform,0,37,1,0,2016-08-11 01:20:53,2016-08-11 01:20:53
38,System Architecture,System Architecture,Computer Accessories,Platform,0,38,1,0,2016-08-11 01:20:53,2016-08-11 01:20:53
39,OS Architecture,OS Architecture,Computer Accessories,Platform,0,39,1,0,2016-08-11 01:20:53,2016-08-11 01:20:53
40,Brand,Brand,Computer Accessories,Processor,0,40,1,0,2016-08-11 01:20:53,2016-08-11 01:20:53
41,Cache,Cache,Computer Accessories,Processor,0,41,1,0,2016-08-11 01:20:53,2016-08-11 01:20:53
42,Variant,Variant,Computer Accessories,Processor,0,42,1,0,2016-08-11 01:20:53,2016-08-11 01:20:53
43,Processor,Processor,Computer Accessories,Processor,0,43,1,0,2016-08-11 01:20:53,2016-08-11 01:20:53
44,Clock Speed,Clock Speed,Computer Accessories,Processor,0,44,1,0,2016-08-11 01:20:53,2016-08-11 01:20:53
45,Battery Backup,Battery Backup,Computer Accessories,Power,0,45,1,0,2016-08-11 01:21:04,2016-08-11 01:21:04
46,Covered in Warranty,Covered in Warranty,Computer Accessories,Warranty,0,46,1,0,2016-08-11 01:21:04,2016-08-11 01:21:04
47,Warranty Service Type,Warranty Service Type,Computer Accessories,Warranty,0,47,1,0,2016-08-11 01:21:04,2016-08-11 01:21:04
48,Not Covered in Warranty,Not Covered in Warranty,Computer Accessories,Warranty,0,48,1,0,2016-08-11 01:21:04,2016-08-11 01:21:04
49,Wireless WAN,Wireless WAN,Computer Accessories,Communication,0,49,1,0,2016-08-11 01:21:04,2016-08-11 01:21:04
50,RJ45 LAN,RJ45 LAN,Computer Accessories,Ports/Slots,0,50,1,0,2016-08-11 01:21:04,2016-08-11 01:21:04
51,HDD Capacity,HDD Capacity,Computer Accessories,Storage,0,51,1,0,2016-08-11 01:21:04,2016-08-11 01:21:04
52,RPM,RPM,Computer Accessories,Storage,0,52,1,0,2016-08-11 01:21:04,2016-08-11 01:21:04
53,Lock Port,Lock Port,Computer Accessories,Security,0,53,1,0,2016-08-11 01:21:05,2016-08-11 01:21:05
54,Series,Series,Computer Accessories,General,0,54,1,0,2016-08-11 01:21:05,2016-08-11 01:21:05
55,RAM Frequency,RAM Frequency,Computer Accessories,Memory,0,55,1,0,2016-08-11 01:21:05,2016-08-11 01:21:05
56,Memory Slots,Memory Slots,Computer Accessories,Memory,0,56,1,0,2016-08-11 01:21:05,2016-08-11 01:21:05
57,Optical Drive,Optical Drive,Computer Accessories,Optical Disk Drive,0,57,1,0,2016-08-11 01:21:05,2016-08-11 01:21:05
58,Read/Write Speed,Read/Write Speed,Computer Accessories,Optical Disk Drive,0,58,1,0,2016-08-11 01:21:05,2016-08-11 01:21:05
59,Dedicated Graphics Memory Capacity,Dedicated Graphics Memory Capacity,Computer Accessories,Graphics,0,59,1,0,2016-08-11 01:21:05,2016-08-11 01:21:05
60,Dedicated Graphics Memory Type,Dedicated Graphics Memory Type,Computer Accessories,Graphics,0,60,1,0,2016-08-11 01:21:05,2016-08-11 01:21:05
61,Audio Chips,Audio Chips,Computer Accessories,Audio,0,61,1,0,2016-08-11 01:21:05,2016-08-11 01:21:05
62,Chipset,Chipset,Computer Accessories,Processor,0,62,1,0,2016-08-11 01:21:05,2016-08-11 01:21:05
63,Fingerprint Sensor,Fingerprint Sensor,Computer Accessories,Security,0,63,1,0,2016-08-11 01:21:12,2016-08-11 01:21:12
64,Laptop Bag,Laptop Bag,Computer Accessories,Accessories,0,64,1,0,2016-08-11 01:21:12,2016-08-11 01:21:12
65,VGA Port,VGA Port,Computer Accessories,Ports/Slots,0,65,1,0,2016-08-11 01:21:43,2016-08-11 01:21:43
66,NFC,NFC,Computer Accessories,Communication,0,66,1,0,2016-08-11 01:22:53,2016-08-11 01:22:53
67,s_video,s_video,Computer Accessories,Ports/Slots,0,67,1,0,2016-08-11 01:22:53,2016-08-11 01:22:53
68,Dock Port,Dock Port,Computer Accessories,Ports/Slots,0,68,1,0,2016-08-11 01:22:53,2016-08-11 01:22:53
69,Firewire Port,Firewire Port,Computer Accessories,Ports/Slots,0,69,1,0,2016-08-11 01:22:53,2016-08-11 01:22:53
70,RJ11,RJ11,Computer Accessories,Ports/Slots,0,70,1,0,2016-08-11 01:22:53,2016-08-11 01:22:53
71,Face Recognition,Face Recognition,Computer Accessories,Security,0,71,1,0,2016-08-11 01:22:53,2016-08-11 01:22:53
72,Antivirus,Antivirus,Computer Accessories,Security,0,72,1,0,2016-08-11 01:22:53,2016-08-11 01:22:53
73,Security Chip,Security Chip,Computer Accessories,Security,0,73,1,0,2016-08-11 01:22:53,2016-08-11 01:22:53
74,EMMC Storage Capacity,EMMC Storage Capacity,Computer Accessories,Storage,0,74,1,0,2016-08-11 01:22:56,2016-08-11 01:22:56
75,Brand 11,Brand 11,Tablets,GENERAL FEATURES,0,75,1,0,2016-08-12 04:38:44,2016-08-12 04:38:44
76,Handset Color 22,Handset Color 22,Tablets,GENERAL FEATURES,0,76,1,0,2016-08-12 04:38:44,2016-08-12 04:38:44
77,Form,Form,Tablets,GENERAL FEATURES,0,77,1,0,2016-08-12 04:38:45,2016-08-12 04:38:45
78,SIM Size,SIM Size,Tablets,GENERAL FEATURES,0,78,1,0,2016-08-12 04:38:45,2016-08-12 04:38:45
79,Call Features,Call Features,Tablets,GENERAL FEATURES,0,79,1,0,2016-08-12 04:38:45,2016-08-12 04:38:45
80,Model Name,Model Name,Tablets,GENERAL FEATURES,0,80,1,0,2016-08-12 04:38:45,2016-08-12 04:38:45
81,Touch Screen,Touch Screen,Tablets,GENERAL FEATURES,0,81,1,0,2016-08-12 04:38:45,2016-08-12 04:38:45
82,SIM Type,SIM Type,Tablets,GENERAL FEATURES,0,82,1,0,2016-08-12 04:38:45,2016-08-12 04:38:45
83,In the Box,In the Box,Tablets,GENERAL FEATURES,0,83,1,0,2016-08-12 04:38:45,2016-08-12 04:38:45
84,Video Recording,Video Recording,Tablets,Camera,0,84,1,0,2016-08-12 04:38:45,2016-08-12 04:38:45
85,Flash,Flash,Tablets,Camera,0,85,1,0,2016-08-12 04:38:45,2016-08-12 04:38:45
86,Secondary Camera Features,Secondary Camera Features,Tablets,Camera,0,86,1,0,2016-08-12 04:38:45,2016-08-12 04:38:45
87,Zoom,Zoom,Tablets,Camera,0,87,1,0,2016-08-12 04:38:45,2016-08-12 04:38:45
88,HD Recording,HD Recording,Tablets,Camera,0,88,1,0,2016-08-12 04:38:45,2016-08-12 04:38:45
89,Rear Camera,Rear Camera,Tablets,Camera,0,89,1,0,2016-08-12 04:38:45,2016-08-12 04:38:45
90,Front Facing Camera,Front Facing Camera,Tablets,Camera,0,90,1,0,2016-08-12 04:38:45,2016-08-12 04:38:45
91,Video Player,Video Player,Tablets,Multimedia,0,91,1,0,2016-08-12 04:38:45,2016-08-12 04:38:45
92,Music Player,Music Player,Tablets,Multimedia,0,92,1,0,2016-08-12 04:38:45,2016-08-12 04:38:45
93,Network Type,Network Type,Tablets,Internet & Connectivity,0,93,1,0,2016-08-12 04:38:45,2016-08-12 04:38:45
94,Preinstalled Browser,Preinstalled Browser,Tablets,Internet & Connectivity,0,94,1,0,2016-08-12 04:38:45,2016-08-12 04:38:45
95,Bluetooth,Bluetooth,Tablets,Internet & Connectivity,0,95,1,0,2016-08-12 04:38:45,2016-08-12 04:38:45
96,Navigation Technology,Navigation Technology,Tablets,Internet & Connectivity,0,96,1,0,2016-08-12 04:38:45,2016-08-12 04:38:45
97,Internet Features,Internet Features,Tablets,Internet & Connectivity,0,97,1,0,2016-08-12 04:38:45,2016-08-12 04:38:45
98,Wifi,Wifi,Tablets,Internet & Connectivity,0,98,1,0,2016-08-12 04:38:45,2016-08-12 04:38:45
99,GPRS,GPRS,Tablets,Internet & Connectivity,0,99,1,0,2016-08-12 04:38:45,2016-08-12 04:38:45
100,USB Connectivity,USB Connectivity,Tablets,Internet & Connectivity,0,100,1,0,2016-08-12 04:38:45,2016-08-12 04:38:45
101,Sensors,Sensors,Tablets,Other Features,0,101,1,0,2016-08-12 04:38:45,2016-08-12 04:38:45
102,Call Memory,Call Memory,Tablets,Other Features,0,102,1,0,2016-08-12 04:38:45,2016-08-12 04:38:45
103,Hybrid Sim Slot,Hybrid Sim Slot,Tablets,Other Features,0,103,1,0,2016-08-12 04:38:45,2016-08-12 04:38:45
104,Warranty Summary,Warranty Summary,Tablets,Warranty,0,104,1,0,2016-08-12 04:38:45,2016-08-12 04:38:45
105,Resolution,Resolution,Tablets,Display,0,105,1,0,2016-08-12 04:38:45,2016-08-12 04:38:45
106,Other Display Features,Other Display Features,Tablets,Display,0,106,1,0,2016-08-12 04:38:45,2016-08-12 04:38:45
107,Size,Size,Tablets,Display,0,107,1,0,2016-08-12 04:38:45,2016-08-12 04:38:45
108,Weight,Weight,Tablets,Dimensions,0,108,1,0,2016-08-12 04:38:45,2016-08-12 04:38:45
109,Size,Size,Tablets,Dimensions,0,109,1,0,2016-08-12 04:38:46,2016-08-12 04:38:46
110,Talk Time,Talk Time,Tablets,Battery,0,110,1,0,2016-08-12 04:38:46,2016-08-12 04:38:46
111,Standby Time,Standby Time,Tablets,Battery,0,111,1,0,2016-08-12 04:38:46,2016-08-12 04:38:46
112,Removable Battery,Removable Battery,Tablets,Battery,0,112,1,0,2016-08-12 04:38:46,2016-08-12 04:38:46
113,Type,Type,Tablets,Battery,0,113,1,0,2016-08-12 04:38:46,2016-08-12 04:38:46
114,Expandable Memory,Expandable Memory,Tablets,Memory and Storage,0,114,1,0,2016-08-12 04:38:46,2016-08-12 04:38:46
115,Memory,Memory,Tablets,Memory and Storage,0,115,1,0,2016-08-12 04:38:46,2016-08-12 04:38:46
116,Internal,Internal,Tablets,Memory and Storage,0,116,1,0,2016-08-12 04:38:46,2016-08-12 04:38:46
117,Operating Freq,Operating Freq,Tablets,Platform,0,117,1,0,2016-08-12 04:38:46,2016-08-12 04:38:46
118,OS,OS,Tablets,Platform,0,118,1,0,2016-08-12 04:38:46,2016-08-12 04:38:46
119,Processor,Processor,Tablets,Platform,0,119,1,0,2016-08-12 04:38:46,2016-08-12 04:38:46
120,Sound Enhancement,Sound Enhancement,Tablets,Multimedia,0,120,1,0,2016-08-12 04:38:48,2016-08-12 04:38:48
121,Primary Camera Features,Primary Camera Features,Tablets,Camera,0,121,1,0,2016-08-12 04:38:49,2016-08-12 04:38:49
122,Audio Jack,Audio Jack,Tablets,Internet & Connectivity,0,122,1,0,2016-08-12 04:38:49,2016-08-12 04:38:49
123,Phone Book Memory,Phone Book Memory,Tablets,Other Features,0,123,1,0,2016-08-12 04:38:49,2016-08-12 04:38:49
124,SMS Memory,SMS Memory,Tablets,Other Features,0,124,1,0,2016-08-12 04:38:49,2016-08-12 04:38:49
125,Additional Features,Additional Features,Tablets,Other Features,0,125,1,0,2016-08-12 04:38:49,2016-08-12 04:38:49
126,Type,Type,Tablets,Display,0,126,1,0,2016-08-12 04:38:49,2016-08-12 04:38:49
127,Color,Color,Tablets,Display,0,127,1,0,2016-08-12 04:38:49,2016-08-12 04:38:49
128,Graphics,Graphics,Tablets,Platform,0,128,1,0,2016-08-12 04:38:49,2016-08-12 04:38:49
129,Business Features,Business Features,Tablets,GENERAL FEATURES,0,129,1,0,2016-08-12 04:38:51,2016-08-12 04:38:51
130,Model ID,Model ID,Tablets,GENERAL FEATURES,0,130,1,0,2016-08-12 04:38:51,2016-08-12 04:38:51
131,Tethering,Tethering,Tablets,Internet & Connectivity,0,131,1,0,2016-08-12 04:38:51,2016-08-12 04:38:51
132,Important Apps,Important Apps,Tablets,Other Features,0,132,1,0,2016-08-12 04:38:51,2016-08-12 04:38:51
133,User Memory,User Memory,Tablets,Memory and Storage,0,133,1,0,2016-08-12 04:38:52,2016-08-12 04:38:52
134,User Interface,User Interface,Tablets,Platform,0,134,1,0,2016-08-12 04:38:52,2016-08-12 04:38:52
135,Keypad,Keypad,Tablets,GENERAL FEATURES,0,135,1,0,2016-08-12 04:38:55,2016-08-12 04:38:55
136,FM,FM,Tablets,Multimedia,0,136,1,0,2016-08-12 04:38:55,2016-08-12 04:38:55
137,SAR Value,SAR Value,Tablets,Other Features,0,137,1,0,2016-08-12 04:38:55,2016-08-12 04:38:55
138,Charging Point,Charging Point,Tablets,Internet & Connectivity,0,138,1,0,2016-08-12 04:39:50,2016-08-12 04:39:50
139,NFC,NFC,Tablets,Internet & Connectivity,0,139,1,0,2016-08-12 04:39:50,2016-08-12 04:39:50
140,DLNA,DLNA,Tablets,Internet & Connectivity,0,140,1,0,2016-08-12 04:39:50,2016-08-12 04:39:50
141,Supported Languages,Supported Languages,Tablets,Other Features,0,141,1,0,2016-08-12 04:41:14,2016-08-12 04:41:14
142,Java,Java,Tablets,Platform,0,142,1,0,2016-08-12 04:41:14,2016-08-12 04:41:14
143,Hybrid Sim Slot,Hybrid Sim Slot,Tablets,GENERAL FEATURES,0,143,1,0,2016-08-12 04:41:24,2016-08-12 04:41:24
144,Covered in Warranty,Covered in Warranty,Tablets,Warranty,0,144,1,0,2016-08-17 06:52:10,2016-08-17 06:52:10
145,Warranty Service Type,Warranty Service Type,Tablets,Warranty,0,145,1,0,2016-08-17 06:52:11,2016-08-17 06:52:11
146,Not Covered in Warranty,Not Covered in Warranty,Tablets,Warranty,0,146,1,0,2016-08-17 06:52:11,2016-08-17 06:52:11
147,Ringtone,Ringtone,Tablets,Multimedia,0,147,1,0,2016-08-17 06:52:17,2016-08-17 06:52:17
148,Brand,Brand,Mobiles,GENERAL FEATURES,0,148,1,0,2016-08-17 08:28:56,2016-08-17 08:28:56
149,Handset Color,Handset Color,Mobiles,GENERAL FEATURES,0,149,1,0,2016-08-17 08:28:56,2016-08-17 08:28:56
150,Form,Form,Mobiles,GENERAL FEATURES,0,150,1,0,2016-08-17 08:28:56,2016-08-17 08:28:56
151,SIM Size,SIM Size,Mobiles,GENERAL FEATURES,0,151,1,0,2016-08-17 08:28:56,2016-08-17 08:28:56
152,Call Features,Call Features,Mobiles,GENERAL FEATURES,0,152,1,0,2016-08-17 08:28:56,2016-08-17 08:28:56
153,Model Name,Model Name,Mobiles,GENERAL FEATURES,0,153,1,0,2016-08-17 08:28:56,2016-08-17 08:28:56
154,SIM Type,SIM Type,Mobiles,GENERAL FEATURES,0,154,1,0,2016-08-17 08:28:56,2016-08-17 08:28:56
155,Hybrid Sim Slot,Hybrid Sim Slot,Mobiles,GENERAL FEATURES,0,155,1,0,2016-08-17 08:28:56,2016-08-17 08:28:56
156,Model ID,Model ID,Mobiles,GENERAL FEATURES,0,156,1,0,2016-08-17 08:28:56,2016-08-17 08:28:56
157,In the Box,In the Box,Mobiles,GENERAL FEATURES,0,157,1,0,2016-08-17 08:28:56,2016-08-17 08:28:56
158,Sound Enhancement,Sound Enhancement,Mobiles,Multimedia,0,158,1,0,2016-08-17 08:28:56,2016-08-17 08:28:56
159,Video Player,Video Player,Mobiles,Multimedia,0,159,1,0,2016-08-17 08:28:56,2016-08-17 08:28:56
160,Music Player,Music Player,Mobiles,Multimedia,0,160,1,0,2016-08-17 08:28:56,2016-08-17 08:28:56
161,Video Recording,Video Recording,Mobiles,Camera,0,161,1,0,2016-08-17 08:28:56,2016-08-17 08:28:56
162,Secondary Camera Features,Secondary Camera Features,Mobiles,Camera,0,162,1,0,2016-08-17 08:28:56,2016-08-17 08:28:56
163,Flash,Flash,Mobiles,Camera,0,163,1,0,2016-08-17 08:28:56,2016-08-17 08:28:56
164,HD Recording,HD Recording,Mobiles,Camera,0,164,1,0,2016-08-17 08:28:56,2016-08-17 08:28:56
165,Rear Camera,Rear Camera,Mobiles,Camera,0,165,1,0,2016-08-17 08:28:56,2016-08-17 08:28:56
166,Front Facing Camera,Front Facing Camera,Mobiles,Camera,0,166,1,0,2016-08-17 08:28:56,2016-08-17 08:28:56
167,Primary Camera Features,Primary Camera Features,Mobiles,Camera,0,167,1,0,2016-08-17 08:28:56,2016-08-17 08:28:56
168,Network Type,Network Type,Mobiles,Internet & Connectivity,0,168,1,0,2016-08-17 08:28:56,2016-08-17 08:28:56
169,Preinstalled Browser,Preinstalled Browser,Mobiles,Internet & Connectivity,0,169,1,0,2016-08-17 08:28:56,2016-08-17 08:28:56
170,Wifi,Wifi,Mobiles,Internet & Connectivity,0,170,1,0,2016-08-17 08:28:56,2016-08-17 08:28:56
171,Internet Features,Internet Features,Mobiles,Internet & Connectivity,0,171,1,0,2016-08-17 08:28:56,2016-08-17 08:28:56
172,USB Connectivity,USB Connectivity,Mobiles,Internet & Connectivity,0,172,1,0,2016-08-17 08:28:57,2016-08-17 08:28:57
173,Call Memory,Call Memory,Mobiles,Other Features,0,173,1,0,2016-08-17 08:28:57,2016-08-17 08:28:57
174,Warranty Summary,Warranty Summary,Mobiles,Warranty,0,174,1,0,2016-08-17 08:28:57,2016-08-17 08:28:57
175,Weight,Weight,Mobiles,Dimensions,0,175,1,0,2016-08-17 08:28:57,2016-08-17 08:28:57
176,Size,Size,Mobiles,Dimensions,0,176,1,0,2016-08-17 08:28:57,2016-08-17 08:28:57
177,Resolution,Resolution,Mobiles,Display,0,177,1,0,2016-08-17 08:28:57,2016-08-17 08:28:57
178,Other Display Features,Other Display Features,Mobiles,Display,0,178,1,0,2016-08-17 08:28:57,2016-08-17 08:28:57
179,Color,Color,Mobiles,Display,0,179,1,0,2016-08-17 08:28:57,2016-08-17 08:28:57
180,Size,Size,Mobiles,Display,0,180,1,0,2016-08-17 08:28:57,2016-08-17 08:28:57
181,Removable Battery,Removable Battery,Mobiles,Battery,0,181,1,0,2016-08-17 08:28:57,2016-08-17 08:28:57
182,Type,Type,Mobiles,Battery,0,182,1,0,2016-08-17 08:28:57,2016-08-17 08:28:57
183,Expandable Memory,Expandable Memory,Mobiles,Memory and Storage,0,183,1,0,2016-08-17 08:28:57,2016-08-17 08:28:57
184,Memory,Memory,Mobiles,Memory and Storage,0,184,1,0,2016-08-17 08:28:57,2016-08-17 08:28:57
185,Internal,Internal,Mobiles,Memory and Storage,0,185,1,0,2016-08-17 08:28:57,2016-08-17 08:28:57
186,Operating Freq,Operating Freq,Mobiles,Platform,0,186,1,0,2016-08-17 08:28:57,2016-08-17 08:28:57
187,OS,OS,Mobiles,Platform,0,187,1,0,2016-08-17 08:28:57,2016-08-17 08:28:57
188,Processor,Processor,Mobiles,Platform,0,188,1,0,2016-08-17 08:28:57,2016-08-17 08:28:57
189,Touch Screen,Touch Screen,Mobiles,GENERAL FEATURES,0,189,1,0,2016-08-17 08:29:00,2016-08-17 08:29:00
190,User Interface,User Interface,Mobiles,Platform,0,190,1,0,2016-08-17 08:29:00,2016-08-17 08:29:00
191,Graphics,Graphics,Mobiles,Platform,0,191,1,0,2016-08-17 08:29:00,2016-08-17 08:29:00
192,Navigation Technology,Navigation Technology,Mobiles,Internet & Connectivity,0,192,1,0,2016-08-17 08:29:00,2016-08-17 08:29:00
193,Bluetooth,Bluetooth,Mobiles,Internet & Connectivity,0,193,1,0,2016-08-17 08:29:00,2016-08-17 08:29:00
194,Sensors,Sensors,Mobiles,Other Features,0,194,1,0,2016-08-17 08:29:00,2016-08-17 08:29:00
195,Additional Features,Additional Features,Mobiles,Other Features,0,195,1,0,2016-08-17 08:29:01,2016-08-17 08:29:01
196,Business Features,Business Features,Mobiles,GENERAL FEATURES,0,196,1,0,2016-08-17 08:29:08,2016-08-17 08:29:08
197,Zoom,Zoom,Mobiles,Camera,0,197,1,0,2016-08-17 08:29:09,2016-08-17 08:29:09
198,Ringtone,Ringtone,Mobiles,Multimedia,0,198,1,0,2016-08-17 08:29:09,2016-08-17 08:29:09
199,FM,FM,Mobiles,Multimedia,0,199,1,0,2016-08-17 08:29:09,2016-08-17 08:29:09
200,Audio Jack,Audio Jack,Mobiles,Internet & Connectivity,0,200,1,0,2016-08-17 08:29:09,2016-08-17 08:29:09
201,GPRS,GPRS,Mobiles,Internet & Connectivity,0,201,1,0,2016-08-17 08:29:09,2016-08-17 08:29:09
202,SAR Value,SAR Value,Mobiles,Other Features,0,202,1,0,2016-08-17 08:29:09,2016-08-17 08:29:09
203,Standby Time,Standby Time,Mobiles,Battery,0,203,1,0,2016-08-17 08:29:09,2016-08-17 08:29:09
204,Type,Type,Mobiles,Display,0,204,1,0,2016-08-17 08:29:15,2016-08-17 08:29:15
205,Tethering,Tethering,Mobiles,Internet & Connectivity,0,205,1,0,2016-08-17 08:29:20,2016-08-17 08:29:20
206,Important Apps,Important Apps,Mobiles,Other Features,0,206,1,0,2016-08-17 08:29:20,2016-08-17 08:29:20
207,SMS Memory,SMS Memory,Mobiles,Other Features,0,207,1,0,2016-08-17 08:29:27,2016-08-17 08:29:27
208,Charging Point,Charging Point,Mobiles,Internet & Connectivity,0,208,1,0,2016-08-17 08:29:57,2016-08-17 08:29:57
209,NFC,NFC,Mobiles,Internet & Connectivity,0,209,1,0,2016-08-17 08:29:57,2016-08-17 08:29:57
210,Phone Book Memory,Phone Book Memory,Mobiles,Other Features,0,210,1,0,2016-08-17 08:29:57,2016-08-17 08:29:57
211,Talk Time,Talk Time,Mobiles,Battery,0,211,1,0,2016-08-17 08:29:58,2016-08-17 08:29:58
212,Java,Java,Mobiles,Platform,0,212,1,0,2016-08-17 08:29:58,2016-08-17 08:29:58
213,DLNA,DLNA,Mobiles,Internet & Connectivity,0,213,1,0,2016-08-17 08:30:08,2016-08-17 08:30:08
214,User Memory,User Memory,Mobiles,Memory and Storage,0,214,1,0,2016-08-17 08:30:08,2016-08-17 08:30:08
215,Keypad,Keypad,Mobiles,GENERAL FEATURES,0,215,1,0,2016-08-17 08:31:44,2016-08-17 08:31:44
216,Video Calling,Video Calling,Mobiles,GENERAL FEATURES,0,216,1,0,2016-08-17 08:31:44,2016-08-17 08:31:44
217,Image Editor,Image Editor,Mobiles,Camera,0,217,1,0,2016-08-17 08:31:44,2016-08-17 08:31:44
218,WAP,WAP,Mobiles,Internet & Connectivity,0,218,1,0,2016-08-17 08:31:45,2016-08-17 08:31:45
219,HDMI Port,HDMI Port,Mobiles,Internet & Connectivity,0,219,1,0,2016-08-17 08:31:45,2016-08-17 08:31:45
220,Covered in Warranty,Covered in Warranty,Mobiles,Warranty,0,220,1,0,2016-08-17 08:31:45,2016-08-17 08:31:45
221,Warranty Service Type,Warranty Service Type,Mobiles,Warranty,0,221,1,0,2016-08-17 08:31:45,2016-08-17 08:31:45
222,Not Covered in Warranty,Not Covered in Warranty,Mobiles,Warranty,0,222,1,0,2016-08-17 08:31:45,2016-08-17 08:31:45
223,Hot Swap Support,Hot Swap Support,Mobiles,Memory and Storage,0,223,1,0,2016-08-17 08:31:45,2016-08-17 08:31:45
224,Supported Languages,Supported Languages,Mobiles,Other Features,0,224,1,0,2016-08-17 08:31:50,2016-08-17 08:31:50
225,"<ul class=""keyFeaturesList"">
                                                    <li>4G Connectivity and Phone Features Depend on the Carrier and the Location of the User</li>
                                            </ul>","<ul class=""keyFeaturesList"">
                                                    <li>4G Connectivity and Phone Features Depend on the Carrier and the Location of the User</li>
                                            </ul>",Mobiles,Important Note,0,225,1,0,2016-08-22 11:28:08,2016-08-22 11:28:08
